ISO-10303-21;
HEADER;
/* Generated by software containing ST-Developer
 * from STEP Tools, Inc. (www.steptools.com) 
 */

FILE_DESCRIPTION(
/* description */ (''),
/* implementation_level */ '2;1');

FILE_NAME(
/* name */ 'C:/Users/felix/Desktop/PRINT QIDI/Lil_adapter v1 v2.step',
/* time_stamp */ '2020-01-15T11:49:13-05:00',
/* author */ (''),
/* organization */ (''),
/* preprocessor_version */ 'ST-DEVELOPER v18',
/* originating_system */ 'Autodesk Translation Framework v8.12.0.6',
/* authorisation */ '');

FILE_SCHEMA (('AUTOMOTIVE_DESIGN { 1 0 10303 214 3 1 1 }'));
ENDSEC;

DATA;
#10=MECHANICAL_DESIGN_GEOMETRIC_PRESENTATION_REPRESENTATION('',(#13),#758);
#11=SHAPE_REPRESENTATION_RELATIONSHIP('SRR','None',#765,#12);
#12=ADVANCED_BREP_SHAPE_REPRESENTATION('',(#14),#757);
#13=STYLED_ITEM('',(#774),#14);
#14=MANIFOLD_SOLID_BREP('Body5',#370);
#15=(
BOUNDED_SURFACE()
B_SPLINE_SURFACE(2,2,((#671,#672,#673,#674,#675,#676,#677,#678,#679),(#680,
#681,#682,#683,#684,#685,#686,#687,#688),(#689,#690,#691,#692,#693,#694,
#695,#696,#697)),.UNSPECIFIED.,.F.,.T.,.F.)
B_SPLINE_SURFACE_WITH_KNOTS((3,3),(3,2,2,2,3),(-0.33412721646571,-0.00499995833395803),
(-3.14159265358979,-1.5707963267949,0.,1.5707963267949,3.14159265358979),
 .UNSPECIFIED.)
GEOMETRIC_REPRESENTATION_ITEM()
RATIONAL_B_SPLINE_SURFACE(((1.,0.707106781186548,1.,0.707106781186548,1.,
0.707106781186548,1.,0.707106781186548,1.),(0.98648993637049,0.69755372357986,
0.98648993637049,0.69755372357986,0.98648993637049,0.69755372357986,0.98648993637049,
0.69755372357986,0.98648993637049),(1.,0.707106781186548,1.,0.707106781186548,
1.,0.707106781186548,1.,0.707106781186548,1.)))
REPRESENTATION_ITEM('')
SURFACE()
);
#16=(
BOUNDED_SURFACE()
B_SPLINE_SURFACE(2,2,((#727,#728,#729,#730,#731,#732,#733,#734,#735),(#736,
#737,#738,#739,#740,#741,#742,#743,#744),(#745,#746,#747,#748,#749,#750,
#751,#752,#753)),.UNSPECIFIED.,.F.,.T.,.F.)
B_SPLINE_SURFACE_WITH_KNOTS((3,3),(3,2,2,2,3),(-0.33412721646571,-0.00499995833395862),
(-3.14159265358979,-1.5707963267949,0.,1.5707963267949,3.14159265358979),
 .UNSPECIFIED.)
GEOMETRIC_REPRESENTATION_ITEM()
RATIONAL_B_SPLINE_SURFACE(((1.,0.707106781186548,1.,0.707106781186548,1.,
0.707106781186548,1.,0.707106781186548,1.),(0.986489936370494,0.697553723579862,
0.986489936370494,0.697553723579862,0.986489936370494,0.697553723579862,
0.986489936370494,0.697553723579862,0.986489936370494),(1.,0.707106781186548,
1.,0.707106781186548,1.,0.707106781186548,1.,0.707106781186548,1.)))
REPRESENTATION_ITEM('')
SURFACE()
);
#17=TOROIDAL_SURFACE('',#400,15.5803812486868,0.5);
#18=TOROIDAL_SURFACE('',#414,16.8999216209749,0.5);
#19=TOROIDAL_SURFACE('',#422,17.6890019365025,0.5);
#20=TOROIDAL_SURFACE('',#435,41.217493524068,25.);
#21=TOROIDAL_SURFACE('',#437,28.0004429593222,15.);
#22=FACE_OUTER_BOUND('',#40,.T.);
#23=FACE_OUTER_BOUND('',#41,.T.);
#24=FACE_OUTER_BOUND('',#42,.T.);
#25=FACE_OUTER_BOUND('',#43,.T.);
#26=FACE_OUTER_BOUND('',#44,.T.);
#27=FACE_OUTER_BOUND('',#45,.T.);
#28=FACE_OUTER_BOUND('',#46,.T.);
#29=FACE_OUTER_BOUND('',#47,.T.);
#30=FACE_OUTER_BOUND('',#48,.T.);
#31=FACE_OUTER_BOUND('',#49,.T.);
#32=FACE_OUTER_BOUND('',#50,.T.);
#33=FACE_OUTER_BOUND('',#51,.T.);
#34=FACE_OUTER_BOUND('',#52,.T.);
#35=FACE_OUTER_BOUND('',#53,.T.);
#36=FACE_OUTER_BOUND('',#54,.T.);
#37=FACE_OUTER_BOUND('',#55,.T.);
#38=FACE_OUTER_BOUND('',#56,.T.);
#39=FACE_OUTER_BOUND('',#57,.T.);
#40=EDGE_LOOP('',(#225,#226,#227,#228,#229,#230));
#41=EDGE_LOOP('',(#231,#232,#233,#234,#235));
#42=EDGE_LOOP('',(#236,#237,#238,#239,#240,#241,#242));
#43=EDGE_LOOP('',(#243,#244,#245,#246));
#44=EDGE_LOOP('',(#247,#248,#249,#250,#251));
#45=EDGE_LOOP('',(#252,#253,#254,#255,#256,#257,#258));
#46=EDGE_LOOP('',(#259,#260,#261,#262,#263,#264));
#47=EDGE_LOOP('',(#265,#266,#267,#268,#269,#270,#271,#272));
#48=EDGE_LOOP('',(#273,#274,#275,#276,#277,#278,#279));
#49=EDGE_LOOP('',(#280,#281,#282,#283,#284,#285,#286));
#50=EDGE_LOOP('',(#287,#288,#289,#290,#291,#292));
#51=EDGE_LOOP('',(#293,#294,#295,#296,#297,#298));
#52=EDGE_LOOP('',(#299,#300,#301,#302,#303,#304));
#53=EDGE_LOOP('',(#305,#306,#307,#308,#309,#310));
#54=EDGE_LOOP('',(#311,#312,#313,#314,#315,#316));
#55=EDGE_LOOP('',(#317,#318,#319,#320,#321,#322,#323,#324));
#56=EDGE_LOOP('',(#325,#326,#327,#328,#329,#330,#331,#332));
#57=EDGE_LOOP('',(#333,#334,#335,#336,#337,#338,#339,#340));
#58=LINE('',#593,#69);
#59=LINE('',#600,#70);
#60=LINE('',#603,#71);
#61=LINE('',#612,#72);
#62=LINE('',#617,#73);
#63=LINE('',#635,#74);
#64=LINE('',#639,#75);
#65=LINE('',#657,#76);
#66=LINE('',#669,#77);
#67=LINE('',#707,#78);
#68=LINE('',#726,#79);
#69=VECTOR('',#455,25.3487468906833);
#70=VECTOR('',#464,25.1);
#71=VECTOR('',#467,25.1);
#72=VECTOR('',#478,27.8487156412692);
#73=VECTOR('',#483,25.1);
#74=VECTOR('',#504,15.9229294499507);
#75=VECTOR('',#509,15.25);
#76=VECTOR('',#530,15.25);
#77=VECTOR('',#545,15.25);
#78=VECTOR('',#558,24.9);
#79=VECTOR('',#583,24.9);
#80=CIRCLE('',#385,25.5999937501172);
#81=CIRCLE('',#386,25.5999937501172);
#82=CIRCLE('',#387,25.0975000312494);
#83=CIRCLE('',#388,25.0975000312494);
#84=CIRCLE('',#390,27.5999687505859);
#85=CIRCLE('',#392,24.9124547512315);
#86=CIRCLE('',#393,24.9124547512315);
#87=CIRCLE('',#394,24.9124547512315);
#88=CIRCLE('',#396,28.0974625319525);
#89=CIRCLE('',#398,27.918229469176);
#90=CIRCLE('',#399,27.918229469176);
#91=CIRCLE('',#401,15.2631592638067);
#92=CIRCLE('',#402,0.5);
#93=CIRCLE('',#403,15.0827856728863);
#94=CIRCLE('',#404,15.0827856728863);
#95=CIRCLE('',#405,15.0827856728863);
#96=CIRCLE('',#406,15.2631592638067);
#97=CIRCLE('',#408,16.5826996360947);
#98=CIRCLE('',#409,16.5826996360947);
#99=CIRCLE('',#411,13.0725756853071);
#100=CIRCLE('',#412,13.0725756853071);
#101=CIRCLE('',#413,13.0725756853071);
#102=CIRCLE('',#415,0.5);
#103=CIRCLE('',#416,16.9488975634749);
#104=CIRCLE('',#417,16.9488975634749);
#105=CIRCLE('',#418,16.9488975634749);
#106=CIRCLE('',#420,17.7379778790025);
#107=CIRCLE('',#421,17.7379778790025);
#108=CIRCLE('',#423,18.186597512303);
#109=CIRCLE('',#424,0.5);
#110=CIRCLE('',#425,18.186597512303);
#111=CIRCLE('',#427,16.337714734043);
#112=CIRCLE('',#428,16.337714734043);
#113=CIRCLE('',#429,25.);
#114=CIRCLE('',#430,26.5359643186039);
#115=CIRCLE('',#431,26.5359643186039);
#116=CIRCLE('',#433,17.6000711687808);
#117=CIRCLE('',#434,17.6000711687808);
#118=CIRCLE('',#436,25.);
#119=CIRCLE('',#438,15.);
#120=CIRCLE('',#439,13.8299895461498);
#121=CIRCLE('',#440,13.8299895461498);
#122=CIRCLE('',#441,13.8299895461498);
#123=CIRCLE('',#443,24.0830956608881);
#124=CIRCLE('',#444,24.0830956608881);
#125=CIRCLE('',#445,24.0830956608881);
#126=CIRCLE('',#446,15.);
#127=VERTEX_POINT('',#588);
#128=VERTEX_POINT('',#589);
#129=VERTEX_POINT('',#592);
#130=VERTEX_POINT('',#594);
#131=VERTEX_POINT('',#598);
#132=VERTEX_POINT('',#602);
#133=VERTEX_POINT('',#604);
#134=VERTEX_POINT('',#606);
#135=VERTEX_POINT('',#610);
#136=VERTEX_POINT('',#614);
#137=VERTEX_POINT('',#615);
#138=VERTEX_POINT('',#620);
#139=VERTEX_POINT('',#621);
#140=VERTEX_POINT('',#623);
#141=VERTEX_POINT('',#625);
#142=VERTEX_POINT('',#627);
#143=VERTEX_POINT('',#632);
#144=VERTEX_POINT('',#633);
#145=VERTEX_POINT('',#638);
#146=VERTEX_POINT('',#640);
#147=VERTEX_POINT('',#642);
#148=VERTEX_POINT('',#646);
#149=VERTEX_POINT('',#648);
#150=VERTEX_POINT('',#650);
#151=VERTEX_POINT('',#654);
#152=VERTEX_POINT('',#655);
#153=VERTEX_POINT('',#660);
#154=VERTEX_POINT('',#661);
#155=VERTEX_POINT('',#666);
#156=VERTEX_POINT('',#667);
#157=VERTEX_POINT('',#698);
#158=VERTEX_POINT('',#700);
#159=VERTEX_POINT('',#704);
#160=VERTEX_POINT('',#705);
#161=VERTEX_POINT('',#712);
#162=VERTEX_POINT('',#714);
#163=VERTEX_POINT('',#716);
#164=VERTEX_POINT('',#720);
#165=VERTEX_POINT('',#721);
#166=VERTEX_POINT('',#723);
#167=EDGE_CURVE('',#127,#128,#80,.T.);
#168=EDGE_CURVE('',#128,#127,#81,.T.);
#169=EDGE_CURVE('',#127,#129,#58,.T.);
#170=EDGE_CURVE('',#129,#130,#82,.T.);
#171=EDGE_CURVE('',#130,#129,#83,.T.);
#172=EDGE_CURVE('',#131,#131,#84,.T.);
#173=EDGE_CURVE('',#131,#128,#59,.T.);
#174=EDGE_CURVE('',#130,#132,#60,.T.);
#175=EDGE_CURVE('',#133,#132,#85,.T.);
#176=EDGE_CURVE('',#134,#133,#86,.T.);
#177=EDGE_CURVE('',#132,#134,#87,.T.);
#178=EDGE_CURVE('',#135,#135,#88,.T.);
#179=EDGE_CURVE('',#135,#131,#61,.T.);
#180=EDGE_CURVE('',#136,#137,#89,.T.);
#181=EDGE_CURVE('',#136,#135,#62,.T.);
#182=EDGE_CURVE('',#137,#136,#90,.T.);
#183=EDGE_CURVE('',#138,#139,#91,.T.);
#184=EDGE_CURVE('',#139,#140,#92,.T.);
#185=EDGE_CURVE('',#140,#141,#93,.T.);
#186=EDGE_CURVE('',#141,#142,#94,.T.);
#187=EDGE_CURVE('',#142,#140,#95,.T.);
#188=EDGE_CURVE('',#139,#138,#96,.T.);
#189=EDGE_CURVE('',#143,#144,#97,.T.);
#190=EDGE_CURVE('',#143,#138,#63,.T.);
#191=EDGE_CURVE('',#144,#143,#98,.T.);
#192=EDGE_CURVE('',#141,#145,#64,.T.);
#193=EDGE_CURVE('',#146,#145,#99,.T.);
#194=EDGE_CURVE('',#147,#146,#100,.T.);
#195=EDGE_CURVE('',#145,#147,#101,.T.);
#196=EDGE_CURVE('',#144,#148,#102,.T.);
#197=EDGE_CURVE('',#148,#149,#103,.T.);
#198=EDGE_CURVE('',#149,#150,#104,.T.);
#199=EDGE_CURVE('',#150,#148,#105,.T.);
#200=EDGE_CURVE('',#151,#152,#106,.T.);
#201=EDGE_CURVE('',#151,#149,#65,.T.);
#202=EDGE_CURVE('',#152,#151,#107,.T.);
#203=EDGE_CURVE('',#153,#154,#108,.T.);
#204=EDGE_CURVE('',#154,#152,#109,.T.);
#205=EDGE_CURVE('',#154,#153,#110,.T.);
#206=EDGE_CURVE('',#155,#156,#111,.T.);
#207=EDGE_CURVE('',#155,#153,#66,.T.);
#208=EDGE_CURVE('',#156,#155,#112,.T.);
#209=EDGE_CURVE('',#137,#157,#113,.T.);
#210=EDGE_CURVE('',#157,#158,#114,.T.);
#211=EDGE_CURVE('',#158,#157,#115,.T.);
#212=EDGE_CURVE('',#159,#160,#116,.T.);
#213=EDGE_CURVE('',#159,#158,#67,.T.);
#214=EDGE_CURVE('',#160,#159,#117,.T.);
#215=EDGE_CURVE('',#156,#160,#118,.T.);
#216=EDGE_CURVE('',#147,#161,#119,.T.);
#217=EDGE_CURVE('',#161,#162,#120,.T.);
#218=EDGE_CURVE('',#162,#163,#121,.T.);
#219=EDGE_CURVE('',#163,#161,#122,.T.);
#220=EDGE_CURVE('',#164,#165,#123,.T.);
#221=EDGE_CURVE('',#166,#164,#124,.T.);
#222=EDGE_CURVE('',#165,#166,#125,.T.);
#223=EDGE_CURVE('',#165,#162,#68,.T.);
#224=EDGE_CURVE('',#133,#166,#126,.T.);
#225=ORIENTED_EDGE('',*,*,#167,.T.);
#226=ORIENTED_EDGE('',*,*,#168,.T.);
#227=ORIENTED_EDGE('',*,*,#169,.T.);
#228=ORIENTED_EDGE('',*,*,#170,.T.);
#229=ORIENTED_EDGE('',*,*,#171,.T.);
#230=ORIENTED_EDGE('',*,*,#169,.F.);
#231=ORIENTED_EDGE('',*,*,#172,.F.);
#232=ORIENTED_EDGE('',*,*,#173,.T.);
#233=ORIENTED_EDGE('',*,*,#167,.F.);
#234=ORIENTED_EDGE('',*,*,#168,.F.);
#235=ORIENTED_EDGE('',*,*,#173,.F.);
#236=ORIENTED_EDGE('',*,*,#170,.F.);
#237=ORIENTED_EDGE('',*,*,#171,.F.);
#238=ORIENTED_EDGE('',*,*,#174,.T.);
#239=ORIENTED_EDGE('',*,*,#175,.F.);
#240=ORIENTED_EDGE('',*,*,#176,.F.);
#241=ORIENTED_EDGE('',*,*,#177,.F.);
#242=ORIENTED_EDGE('',*,*,#174,.F.);
#243=ORIENTED_EDGE('',*,*,#178,.T.);
#244=ORIENTED_EDGE('',*,*,#179,.T.);
#245=ORIENTED_EDGE('',*,*,#172,.T.);
#246=ORIENTED_EDGE('',*,*,#179,.F.);
#247=ORIENTED_EDGE('',*,*,#180,.F.);
#248=ORIENTED_EDGE('',*,*,#181,.T.);
#249=ORIENTED_EDGE('',*,*,#178,.F.);
#250=ORIENTED_EDGE('',*,*,#181,.F.);
#251=ORIENTED_EDGE('',*,*,#182,.F.);
#252=ORIENTED_EDGE('',*,*,#183,.T.);
#253=ORIENTED_EDGE('',*,*,#184,.T.);
#254=ORIENTED_EDGE('',*,*,#185,.T.);
#255=ORIENTED_EDGE('',*,*,#186,.T.);
#256=ORIENTED_EDGE('',*,*,#187,.T.);
#257=ORIENTED_EDGE('',*,*,#184,.F.);
#258=ORIENTED_EDGE('',*,*,#188,.T.);
#259=ORIENTED_EDGE('',*,*,#189,.F.);
#260=ORIENTED_EDGE('',*,*,#190,.T.);
#261=ORIENTED_EDGE('',*,*,#188,.F.);
#262=ORIENTED_EDGE('',*,*,#183,.F.);
#263=ORIENTED_EDGE('',*,*,#190,.F.);
#264=ORIENTED_EDGE('',*,*,#191,.F.);
#265=ORIENTED_EDGE('',*,*,#187,.F.);
#266=ORIENTED_EDGE('',*,*,#186,.F.);
#267=ORIENTED_EDGE('',*,*,#192,.T.);
#268=ORIENTED_EDGE('',*,*,#193,.F.);
#269=ORIENTED_EDGE('',*,*,#194,.F.);
#270=ORIENTED_EDGE('',*,*,#195,.F.);
#271=ORIENTED_EDGE('',*,*,#192,.F.);
#272=ORIENTED_EDGE('',*,*,#185,.F.);
#273=ORIENTED_EDGE('',*,*,#189,.T.);
#274=ORIENTED_EDGE('',*,*,#196,.T.);
#275=ORIENTED_EDGE('',*,*,#197,.T.);
#276=ORIENTED_EDGE('',*,*,#198,.T.);
#277=ORIENTED_EDGE('',*,*,#199,.T.);
#278=ORIENTED_EDGE('',*,*,#196,.F.);
#279=ORIENTED_EDGE('',*,*,#191,.T.);
#280=ORIENTED_EDGE('',*,*,#200,.F.);
#281=ORIENTED_EDGE('',*,*,#201,.T.);
#282=ORIENTED_EDGE('',*,*,#197,.F.);
#283=ORIENTED_EDGE('',*,*,#199,.F.);
#284=ORIENTED_EDGE('',*,*,#198,.F.);
#285=ORIENTED_EDGE('',*,*,#201,.F.);
#286=ORIENTED_EDGE('',*,*,#202,.F.);
#287=ORIENTED_EDGE('',*,*,#203,.T.);
#288=ORIENTED_EDGE('',*,*,#204,.T.);
#289=ORIENTED_EDGE('',*,*,#202,.T.);
#290=ORIENTED_EDGE('',*,*,#200,.T.);
#291=ORIENTED_EDGE('',*,*,#204,.F.);
#292=ORIENTED_EDGE('',*,*,#205,.T.);
#293=ORIENTED_EDGE('',*,*,#206,.F.);
#294=ORIENTED_EDGE('',*,*,#207,.T.);
#295=ORIENTED_EDGE('',*,*,#205,.F.);
#296=ORIENTED_EDGE('',*,*,#203,.F.);
#297=ORIENTED_EDGE('',*,*,#207,.F.);
#298=ORIENTED_EDGE('',*,*,#208,.F.);
#299=ORIENTED_EDGE('',*,*,#180,.T.);
#300=ORIENTED_EDGE('',*,*,#209,.T.);
#301=ORIENTED_EDGE('',*,*,#210,.T.);
#302=ORIENTED_EDGE('',*,*,#211,.T.);
#303=ORIENTED_EDGE('',*,*,#209,.F.);
#304=ORIENTED_EDGE('',*,*,#182,.T.);
#305=ORIENTED_EDGE('',*,*,#212,.F.);
#306=ORIENTED_EDGE('',*,*,#213,.T.);
#307=ORIENTED_EDGE('',*,*,#210,.F.);
#308=ORIENTED_EDGE('',*,*,#211,.F.);
#309=ORIENTED_EDGE('',*,*,#213,.F.);
#310=ORIENTED_EDGE('',*,*,#214,.F.);
#311=ORIENTED_EDGE('',*,*,#206,.T.);
#312=ORIENTED_EDGE('',*,*,#215,.T.);
#313=ORIENTED_EDGE('',*,*,#214,.T.);
#314=ORIENTED_EDGE('',*,*,#212,.T.);
#315=ORIENTED_EDGE('',*,*,#215,.F.);
#316=ORIENTED_EDGE('',*,*,#208,.T.);
#317=ORIENTED_EDGE('',*,*,#193,.T.);
#318=ORIENTED_EDGE('',*,*,#195,.T.);
#319=ORIENTED_EDGE('',*,*,#216,.T.);
#320=ORIENTED_EDGE('',*,*,#217,.T.);
#321=ORIENTED_EDGE('',*,*,#218,.T.);
#322=ORIENTED_EDGE('',*,*,#219,.T.);
#323=ORIENTED_EDGE('',*,*,#216,.F.);
#324=ORIENTED_EDGE('',*,*,#194,.T.);
#325=ORIENTED_EDGE('',*,*,#220,.F.);
#326=ORIENTED_EDGE('',*,*,#221,.F.);
#327=ORIENTED_EDGE('',*,*,#222,.F.);
#328=ORIENTED_EDGE('',*,*,#223,.T.);
#329=ORIENTED_EDGE('',*,*,#217,.F.);
#330=ORIENTED_EDGE('',*,*,#219,.F.);
#331=ORIENTED_EDGE('',*,*,#218,.F.);
#332=ORIENTED_EDGE('',*,*,#223,.F.);
#333=ORIENTED_EDGE('',*,*,#176,.T.);
#334=ORIENTED_EDGE('',*,*,#224,.T.);
#335=ORIENTED_EDGE('',*,*,#221,.T.);
#336=ORIENTED_EDGE('',*,*,#220,.T.);
#337=ORIENTED_EDGE('',*,*,#222,.T.);
#338=ORIENTED_EDGE('',*,*,#224,.F.);
#339=ORIENTED_EDGE('',*,*,#175,.T.);
#340=ORIENTED_EDGE('',*,*,#177,.T.);
#341=CONICAL_SURFACE('',#384,25.3487468906833,0.790398121731413);
#342=CONICAL_SURFACE('',#389,25.1,1.56579636846094);
#343=CONICAL_SURFACE('',#391,25.1,0.00499995833395833);
#344=CONICAL_SURFACE('',#395,27.8487156412692,0.780398205063477);
#345=CONICAL_SURFACE('',#397,28.0999625007031,0.00499995833395833);
#346=CONICAL_SURFACE('',#407,15.9229294499507,0.88350736296171);
#347=CONICAL_SURFACE('',#410,15.25,0.0981091995642713);
#348=CONICAL_SURFACE('',#419,15.25,1.47268712723063);
#349=CONICAL_SURFACE('',#426,18.235573454803,0.0981091995642713);
#350=CONICAL_SURFACE('',#432,27.7340906826345,0.33412721646571);
#351=CONICAL_SURFACE('',#442,24.9,0.33412721646571);
#352=ADVANCED_FACE('',(#22),#341,.F.);
#353=ADVANCED_FACE('',(#23),#342,.T.);
#354=ADVANCED_FACE('',(#24),#343,.F.);
#355=ADVANCED_FACE('',(#25),#344,.T.);
#356=ADVANCED_FACE('',(#26),#345,.T.);
#357=ADVANCED_FACE('',(#27),#17,.T.);
#358=ADVANCED_FACE('',(#28),#346,.F.);
#359=ADVANCED_FACE('',(#29),#347,.F.);
#360=ADVANCED_FACE('',(#30),#18,.T.);
#361=ADVANCED_FACE('',(#31),#348,.T.);
#362=ADVANCED_FACE('',(#32),#19,.T.);
#363=ADVANCED_FACE('',(#33),#349,.T.);
#364=ADVANCED_FACE('',(#34),#15,.F.);
#365=ADVANCED_FACE('',(#35),#350,.T.);
#366=ADVANCED_FACE('',(#36),#20,.F.);
#367=ADVANCED_FACE('',(#37),#21,.T.);
#368=ADVANCED_FACE('',(#38),#351,.F.);
#369=ADVANCED_FACE('',(#39),#16,.T.);
#370=CLOSED_SHELL('',(#352,#353,#354,#355,#356,#357,#358,#359,#360,#361,
#362,#363,#364,#365,#366,#367,#368,#369));
#371=DERIVED_UNIT_ELEMENT(#373,1.);
#372=DERIVED_UNIT_ELEMENT(#760,3.);
#373=(
MASS_UNIT()
NAMED_UNIT(*)
SI_UNIT(.KILO.,.GRAM.)
);
#374=DERIVED_UNIT((#371,#372));
#375=MEASURE_REPRESENTATION_ITEM('density measure',
POSITIVE_RATIO_MEASURE(7850.),#374);
#376=PROPERTY_DEFINITION_REPRESENTATION(#381,#378);
#377=PROPERTY_DEFINITION_REPRESENTATION(#382,#379);
#378=REPRESENTATION('material name',(#380),#757);
#379=REPRESENTATION('density',(#375),#757);
#380=DESCRIPTIVE_REPRESENTATION_ITEM('Steel','Steel');
#381=PROPERTY_DEFINITION('material property','material name',#767);
#382=PROPERTY_DEFINITION('material property','density of part',#767);
#383=AXIS2_PLACEMENT_3D('placement',#586,#447,#448);
#384=AXIS2_PLACEMENT_3D('',#587,#449,#450);
#385=AXIS2_PLACEMENT_3D('',#590,#451,#452);
#386=AXIS2_PLACEMENT_3D('',#591,#453,#454);
#387=AXIS2_PLACEMENT_3D('',#595,#456,#457);
#388=AXIS2_PLACEMENT_3D('',#596,#458,#459);
#389=AXIS2_PLACEMENT_3D('',#597,#460,#461);
#390=AXIS2_PLACEMENT_3D('',#599,#462,#463);
#391=AXIS2_PLACEMENT_3D('',#601,#465,#466);
#392=AXIS2_PLACEMENT_3D('',#605,#468,#469);
#393=AXIS2_PLACEMENT_3D('',#607,#470,#471);
#394=AXIS2_PLACEMENT_3D('',#608,#472,#473);
#395=AXIS2_PLACEMENT_3D('',#609,#474,#475);
#396=AXIS2_PLACEMENT_3D('',#611,#476,#477);
#397=AXIS2_PLACEMENT_3D('',#613,#479,#480);
#398=AXIS2_PLACEMENT_3D('',#616,#481,#482);
#399=AXIS2_PLACEMENT_3D('',#618,#484,#485);
#400=AXIS2_PLACEMENT_3D('',#619,#486,#487);
#401=AXIS2_PLACEMENT_3D('',#622,#488,#489);
#402=AXIS2_PLACEMENT_3D('',#624,#490,#491);
#403=AXIS2_PLACEMENT_3D('',#626,#492,#493);
#404=AXIS2_PLACEMENT_3D('',#628,#494,#495);
#405=AXIS2_PLACEMENT_3D('',#629,#496,#497);
#406=AXIS2_PLACEMENT_3D('',#630,#498,#499);
#407=AXIS2_PLACEMENT_3D('',#631,#500,#501);
#408=AXIS2_PLACEMENT_3D('',#634,#502,#503);
#409=AXIS2_PLACEMENT_3D('',#636,#505,#506);
#410=AXIS2_PLACEMENT_3D('',#637,#507,#508);
#411=AXIS2_PLACEMENT_3D('',#641,#510,#511);
#412=AXIS2_PLACEMENT_3D('',#643,#512,#513);
#413=AXIS2_PLACEMENT_3D('',#644,#514,#515);
#414=AXIS2_PLACEMENT_3D('',#645,#516,#517);
#415=AXIS2_PLACEMENT_3D('',#647,#518,#519);
#416=AXIS2_PLACEMENT_3D('',#649,#520,#521);
#417=AXIS2_PLACEMENT_3D('',#651,#522,#523);
#418=AXIS2_PLACEMENT_3D('',#652,#524,#525);
#419=AXIS2_PLACEMENT_3D('',#653,#526,#527);
#420=AXIS2_PLACEMENT_3D('',#656,#528,#529);
#421=AXIS2_PLACEMENT_3D('',#658,#531,#532);
#422=AXIS2_PLACEMENT_3D('',#659,#533,#534);
#423=AXIS2_PLACEMENT_3D('',#662,#535,#536);
#424=AXIS2_PLACEMENT_3D('',#663,#537,#538);
#425=AXIS2_PLACEMENT_3D('',#664,#539,#540);
#426=AXIS2_PLACEMENT_3D('',#665,#541,#542);
#427=AXIS2_PLACEMENT_3D('',#668,#543,#544);
#428=AXIS2_PLACEMENT_3D('',#670,#546,#547);
#429=AXIS2_PLACEMENT_3D('',#699,#548,#549);
#430=AXIS2_PLACEMENT_3D('',#701,#550,#551);
#431=AXIS2_PLACEMENT_3D('',#702,#552,#553);
#432=AXIS2_PLACEMENT_3D('',#703,#554,#555);
#433=AXIS2_PLACEMENT_3D('',#706,#556,#557);
#434=AXIS2_PLACEMENT_3D('',#708,#559,#560);
#435=AXIS2_PLACEMENT_3D('',#709,#561,#562);
#436=AXIS2_PLACEMENT_3D('',#710,#563,#564);
#437=AXIS2_PLACEMENT_3D('',#711,#565,#566);
#438=AXIS2_PLACEMENT_3D('',#713,#567,#568);
#439=AXIS2_PLACEMENT_3D('',#715,#569,#570);
#440=AXIS2_PLACEMENT_3D('',#717,#571,#572);
#441=AXIS2_PLACEMENT_3D('',#718,#573,#574);
#442=AXIS2_PLACEMENT_3D('',#719,#575,#576);
#443=AXIS2_PLACEMENT_3D('',#722,#577,#578);
#444=AXIS2_PLACEMENT_3D('',#724,#579,#580);
#445=AXIS2_PLACEMENT_3D('',#725,#581,#582);
#446=AXIS2_PLACEMENT_3D('',#754,#584,#585);
#447=DIRECTION('axis',(0.,0.,1.));
#448=DIRECTION('refdir',(1.,0.,0.));
#449=DIRECTION('center_axis',(0.,-1.,-6.23992960410417E-15));
#450=DIRECTION('ref_axis',(-1.,0.,-6.06910991554035E-19));
#451=DIRECTION('center_axis',(0.,-1.,0.));
#452=DIRECTION('ref_axis',(-1.,0.,-6.12323399573677E-17));
#453=DIRECTION('center_axis',(0.,-1.,0.));
#454=DIRECTION('ref_axis',(-1.,0.,-6.12323399573677E-17));
#455=DIRECTION('',(-0.7106334322301,0.703562452804915,4.30272139053778E-15));
#456=DIRECTION('center_axis',(0.,1.,0.));
#457=DIRECTION('ref_axis',(-1.,0.,6.12323399573677E-17));
#458=DIRECTION('center_axis',(0.,1.,0.));
#459=DIRECTION('ref_axis',(-1.,0.,6.12323399573677E-17));
#460=DIRECTION('center_axis',(0.,1.,0.));
#461=DIRECTION('ref_axis',(1.,0.,0.));
#462=DIRECTION('center_axis',(0.,1.,0.));
#463=DIRECTION('ref_axis',(1.,0.,6.12323399573677E-17));
#464=DIRECTION('',(0.99998750023437,-0.00499993750117185,1.22463149134938E-16));
#465=DIRECTION('center_axis',(0.,-1.,0.));
#466=DIRECTION('ref_axis',(1.,0.,0.));
#467=DIRECTION('',(0.00499993750117185,0.99998750023437,-6.12315745674693E-19));
#468=DIRECTION('center_axis',(0.,-1.,0.));
#469=DIRECTION('ref_axis',(-1.,0.,1.22464679914735E-16));
#470=DIRECTION('center_axis',(0.,-1.,0.));
#471=DIRECTION('ref_axis',(-1.,0.,1.22464679914735E-16));
#472=DIRECTION('center_axis',(0.,-1.,0.));
#473=DIRECTION('ref_axis',(-1.,0.,1.22464679914735E-16));
#474=DIRECTION('center_axis',(0.,1.,6.78711776682302E-15));
#475=DIRECTION('ref_axis',(1.,0.,-5.46932015460225E-19));
#476=DIRECTION('center_axis',(0.,-1.,0.));
#477=DIRECTION('ref_axis',(1.,0.,-6.12323399573677E-17));
#478=DIRECTION('',(0.70356245280491,-0.710633432230104,-4.90969914500046E-15));
#479=DIRECTION('center_axis',(0.,-1.,0.));
#480=DIRECTION('ref_axis',(1.,0.,0.));
#481=DIRECTION('center_axis',(0.,1.,0.));
#482=DIRECTION('ref_axis',(1.,0.,-6.12323399573677E-17));
#483=DIRECTION('',(-0.00499993750117185,-0.99998750023437,6.12315745674693E-19));
#484=DIRECTION('center_axis',(0.,1.,0.));
#485=DIRECTION('ref_axis',(1.,0.,-6.12323399573677E-17));
#486=DIRECTION('center_axis',(0.,-1.,0.));
#487=DIRECTION('ref_axis',(0.,0.,-1.));
#488=DIRECTION('center_axis',(0.,1.,0.));
#489=DIRECTION('ref_axis',(-1.,0.,4.31154395149068E-17));
#490=DIRECTION('center_axis',(-1.,0.,-1.22464679914735E-16));
#491=DIRECTION('ref_axis',(-1.22464679914735E-16,0.,1.));
#492=DIRECTION('center_axis',(0.,-1.,0.));
#493=DIRECTION('ref_axis',(-1.,0.,-1.22464679914735E-16));
#494=DIRECTION('center_axis',(0.,-1.,0.));
#495=DIRECTION('ref_axis',(-1.,0.,-1.22464679914735E-16));
#496=DIRECTION('center_axis',(0.,-1.,0.));
#497=DIRECTION('ref_axis',(-1.,0.,-1.22464679914735E-16));
#498=DIRECTION('center_axis',(0.,1.,0.));
#499=DIRECTION('ref_axis',(-1.,0.,4.31154395149068E-17));
#500=DIRECTION('center_axis',(0.,1.,1.44888625288729E-15));
#501=DIRECTION('ref_axis',(-1.,0.,3.15279796266047E-18));
#502=DIRECTION('center_axis',(-1.00077779594167E-31,-1.,-1.07121088748044E-15));
#503=DIRECTION('ref_axis',(-1.,0.,9.34249089173817E-17));
#504=DIRECTION('',(-0.772968853987486,-0.63444396976035,-8.22138748097323E-16));
#505=DIRECTION('center_axis',(-1.00077779594167E-31,-1.,-1.07121088748044E-15));
#506=DIRECTION('ref_axis',(-1.,0.,9.34249089173817E-17));
#507=DIRECTION('center_axis',(0.,1.,0.));
#508=DIRECTION('ref_axis',(1.,0.,0.));
#509=DIRECTION('',(0.0979518850000986,-0.995191151601001,1.1995646243582E-17));
#510=DIRECTION('center_axis',(0.,1.,0.));
#511=DIRECTION('ref_axis',(-1.,0.,0.));
#512=DIRECTION('center_axis',(0.,1.,0.));
#513=DIRECTION('ref_axis',(-1.,0.,0.));
#514=DIRECTION('center_axis',(0.,1.,0.));
#515=DIRECTION('ref_axis',(-1.,0.,0.));
#516=DIRECTION('center_axis',(0.,1.,1.44888625288729E-15));
#517=DIRECTION('ref_axis',(0.,-1.63343893435375E-15,1.));
#518=DIRECTION('center_axis',(-1.,-1.77437391192702E-31,1.22464679914735E-16));
#519=DIRECTION('ref_axis',(-1.22464679914735E-16,1.0208993339711E-15,-1.));
#520=DIRECTION('center_axis',(0.,1.,0.));
#521=DIRECTION('ref_axis',(-1.,0.,8.37168808313138E-17));
#522=DIRECTION('center_axis',(0.,1.,0.));
#523=DIRECTION('ref_axis',(-1.,0.,8.37168808313138E-17));
#524=DIRECTION('center_axis',(0.,1.,0.));
#525=DIRECTION('ref_axis',(-1.,0.,8.37168808313138E-17));
#526=DIRECTION('center_axis',(0.,-1.,0.));
#527=DIRECTION('ref_axis',(1.,0.,0.));
#528=DIRECTION('center_axis',(0.,-1.,0.));
#529=DIRECTION('ref_axis',(1.,0.,-6.12323399573677E-17));
#530=DIRECTION('',(0.995191151601001,0.0979518850000986,-1.21875765834793E-16));
#531=DIRECTION('center_axis',(0.,-1.,0.));
#532=DIRECTION('ref_axis',(1.,0.,-6.12323399573677E-17));
#533=DIRECTION('center_axis',(0.,-1.,0.));
#534=DIRECTION('ref_axis',(0.,0.,-1.));
#535=DIRECTION('center_axis',(0.,1.,0.));
#536=DIRECTION('ref_axis',(1.,0.,6.12323399573677E-17));
#537=DIRECTION('center_axis',(-1.,0.,-1.22464679914735E-16));
#538=DIRECTION('ref_axis',(-1.22464679914735E-16,0.,1.));
#539=DIRECTION('center_axis',(0.,1.,0.));
#540=DIRECTION('ref_axis',(1.,0.,6.12323399573677E-17));
#541=DIRECTION('center_axis',(0.,1.,0.));
#542=DIRECTION('ref_axis',(1.,0.,0.));
#543=DIRECTION('center_axis',(0.,-1.,0.));
#544=DIRECTION('ref_axis',(1.,0.,6.12323399573676E-17));
#545=DIRECTION('',(-0.0979518850000986,0.995191151601001,-1.1995646243582E-17));
#546=DIRECTION('center_axis',(0.,-1.,0.));
#547=DIRECTION('ref_axis',(1.,0.,6.12323399573676E-17));
#548=DIRECTION('center_axis',(-1.,0.,-1.22464679914735E-16));
#549=DIRECTION('ref_axis',(-1.22464679914735E-16,0.,1.));
#550=DIRECTION('center_axis',(0.,-1.,0.));
#551=DIRECTION('ref_axis',(1.,0.,-6.12323399573677E-17));
#552=DIRECTION('center_axis',(0.,-1.,0.));
#553=DIRECTION('ref_axis',(1.,0.,-6.12323399573677E-17));
#554=DIRECTION('center_axis',(0.,-1.,0.));
#555=DIRECTION('ref_axis',(1.,0.,0.));
#556=DIRECTION('center_axis',(0.,1.,0.));
#557=DIRECTION('ref_axis',(1.,0.,-6.12323399573677E-17));
#558=DIRECTION('',(-0.32794477899056,-0.944696894211489,4.01616523887875E-17));
#559=DIRECTION('center_axis',(0.,1.,0.));
#560=DIRECTION('ref_axis',(1.,0.,-6.12323399573677E-17));
#561=DIRECTION('center_axis',(0.,-1.,0.));
#562=DIRECTION('ref_axis',(0.,0.,-1.));
#563=DIRECTION('center_axis',(-1.,0.,-1.22464679914735E-16));
#564=DIRECTION('ref_axis',(-1.22464679914735E-16,0.,1.));
#565=DIRECTION('center_axis',(0.,-1.,0.));
#566=DIRECTION('ref_axis',(0.,0.,-1.));
#567=DIRECTION('center_axis',(-1.,0.,-1.22464679914735E-16));
#568=DIRECTION('ref_axis',(-1.22464679914735E-16,0.,1.));
#569=DIRECTION('center_axis',(0.,-1.,0.));
#570=DIRECTION('ref_axis',(-1.,0.,1.22464679914735E-16));
#571=DIRECTION('center_axis',(0.,-1.,0.));
#572=DIRECTION('ref_axis',(-1.,0.,1.22464679914735E-16));
#573=DIRECTION('center_axis',(0.,-1.,0.));
#574=DIRECTION('ref_axis',(-1.,0.,1.22464679914735E-16));
#575=DIRECTION('center_axis',(0.,-1.,0.));
#576=DIRECTION('ref_axis',(1.,0.,0.));
#577=DIRECTION('center_axis',(0.,1.,0.));
#578=DIRECTION('ref_axis',(-1.,0.,1.22464679914735E-16));
#579=DIRECTION('center_axis',(0.,1.,0.));
#580=DIRECTION('ref_axis',(-1.,0.,1.22464679914735E-16));
#581=DIRECTION('center_axis',(0.,1.,0.));
#582=DIRECTION('ref_axis',(-1.,0.,1.22464679914735E-16));
#583=DIRECTION('',(0.32794477899056,0.944696894211489,-4.01616523887875E-17));
#584=DIRECTION('center_axis',(-1.,0.,-1.22464679914735E-16));
#585=DIRECTION('ref_axis',(-1.22464679914735E-16,0.,1.));
#586=CARTESIAN_POINT('',(0.,0.,0.));
#587=CARTESIAN_POINT('Origin',(0.,0.251246859433886,-1.53844331100769E-17));
#588=CARTESIAN_POINT('',(25.5999937501172,0.00249996875058596,3.13509504042733E-15));
#589=CARTESIAN_POINT('',(-25.5999937501172,0.00249996875058595,-3.13509504042733E-15));
#590=CARTESIAN_POINT('Origin',(0.,0.00249996875058596,-1.56754752021366E-15));
#591=CARTESIAN_POINT('Origin',(0.,0.00249996875058596,-1.56754752021366E-15));
#592=CARTESIAN_POINT('',(25.0975000312494,0.499993750117185,-3.07355730798702E-15));
#593=CARTESIAN_POINT('',(25.3487468906833,0.251246859433886,3.10432617420717E-15));
#594=CARTESIAN_POINT('',(-25.0975000312494,0.499993750117185,3.07355730798702E-15));
#595=CARTESIAN_POINT('Origin',(0.,0.499993750117185,1.53677865399351E-15));
#596=CARTESIAN_POINT('Origin',(0.,0.499993750117185,1.53677865399351E-15));
#597=CARTESIAN_POINT('Origin',(0.,0.,0.));
#598=CARTESIAN_POINT('',(-27.5999687505859,0.0124998437529296,0.));
#599=CARTESIAN_POINT('Origin',(0.,0.0124998437529296,-1.6900106693486E-15));
#600=CARTESIAN_POINT('',(-25.1,0.,-3.07386346585986E-15));
#601=CARTESIAN_POINT('Origin',(0.,0.,0.));
#602=CARTESIAN_POINT('',(-24.9124547512315,37.5090497537017,3.05089579699989E-15));
#603=CARTESIAN_POINT('',(-25.1,0.,3.07386346585986E-15));
#604=CARTESIAN_POINT('',(-3.05089579699989E-15,37.5090497537017,24.9124547512315));
#605=CARTESIAN_POINT('Origin',(0.,37.5090497537017,0.));
#606=CARTESIAN_POINT('',(24.9124547512315,37.5090497537017,0.));
#607=CARTESIAN_POINT('Origin',(0.,37.5090497537017,0.));
#608=CARTESIAN_POINT('Origin',(0.,37.5090497537017,0.));
#609=CARTESIAN_POINT('Origin',(0.,0.263746703186822,1.52313541736582E-17));
#610=CARTESIAN_POINT('',(-28.0974625319525,0.514993562620715,0.));
#611=CARTESIAN_POINT('Origin',(0.,0.514993562620715,1.72047337769592E-15));
#612=CARTESIAN_POINT('',(-27.8487156412692,0.263746703186822,3.44094675539183E-15));
#613=CARTESIAN_POINT('Origin',(0.,0.0149998125035156,0.));
#614=CARTESIAN_POINT('',(-27.918229469176,36.3616061179321,6.83799407145753E-15));
#615=CARTESIAN_POINT('',(-3.41899703572877E-15,36.3616061179321,27.918229469176));
#616=CARTESIAN_POINT('Origin',(0.,36.3616061179321,1.70949851786438E-15));
#617=CARTESIAN_POINT('',(-28.0999625007031,0.0149998125035156,3.44125291326467E-15));
#618=CARTESIAN_POINT('Origin',(0.,36.3616061179321,1.70949851786438E-15));
#619=CARTESIAN_POINT('Origin',(0.,98.652126494025,0.));
#620=CARTESIAN_POINT('',(15.2631592638067,99.0386109210188,-4.52093368809941E-15));
#621=CARTESIAN_POINT('',(-1.86919791372971E-15,99.0386109210188,15.2631592638067));
#622=CARTESIAN_POINT('Origin',(0.,99.0386109210188,-1.99365795432466E-15));
#623=CARTESIAN_POINT('',(-1.84710851965258E-15,98.701102436525,15.0827856728863));
#624=CARTESIAN_POINT('Origin',(-1.90804640256998E-15,98.652126494025,15.5803812486868));
#625=CARTESIAN_POINT('',(-15.0827856728863,98.7011024365251,-1.84710851965258E-15));
#626=CARTESIAN_POINT('Origin',(0.,98.7011024365251,1.23259516440783E-31));
#627=CARTESIAN_POINT('',(15.0827856728863,98.7011024365251,3.69421703930516E-15));
#628=CARTESIAN_POINT('Origin',(0.,98.7011024365251,1.23259516440783E-31));
#629=CARTESIAN_POINT('Origin',(0.,98.7011024365251,1.23259516440783E-31));
#630=CARTESIAN_POINT('Origin',(0.,99.0386109210188,-1.99365795432466E-15));
#631=CARTESIAN_POINT('Origin',(0.,99.5801427225492,5.02017795293908E-17));
#632=CARTESIAN_POINT('',(16.5826996360947,100.12167452408,7.82537860639985E-16));
#633=CARTESIAN_POINT('',(-2.03079500305653E-15,100.12167452408,-16.5826996360947));
#634=CARTESIAN_POINT('Origin',(0.,100.12167452408,3.00980060689897E-16));
#635=CARTESIAN_POINT('',(15.9229294499507,99.5801427225492,-1.94999645839312E-15));
#636=CARTESIAN_POINT('Origin',(0.,100.12167452408,3.00980060689897E-16));
#637=CARTESIAN_POINT('Origin',(0.,100.4,0.));
#638=CARTESIAN_POINT('',(-13.0725756853071,78.2773689627205,-1.60092879696229E-15));
#639=CARTESIAN_POINT('',(-15.25,100.4,-1.86758636869971E-15));
#640=CARTESIAN_POINT('',(13.0725756853071,78.2773689627205,-3.20185759392458E-15));
#641=CARTESIAN_POINT('Origin',(0.,78.2773689627205,-1.60092879696229E-15));
#642=CARTESIAN_POINT('',(-1.60092879696229E-15,78.2773689627205,13.0725756853071));
#643=CARTESIAN_POINT('Origin',(0.,78.2773689627205,-1.60092879696229E-15));
#644=CARTESIAN_POINT('Origin',(0.,78.2773689627205,-1.60092879696229E-15));
#645=CARTESIAN_POINT('Origin',(0.,99.7351900970858,2.74847789041819E-16));
#646=CARTESIAN_POINT('',(-2.07564131501859E-15,100.232785672886,-16.9488975634749));
#647=CARTESIAN_POINT('Origin',(-2.0696434918968E-15,99.7351900970858,-16.8999216209749));
#648=CARTESIAN_POINT('',(-16.9488975634749,100.232785672886,2.07564131501859E-15));
#649=CARTESIAN_POINT('Origin',(0.,100.232785672886,6.56732477475019E-16));
#650=CARTESIAN_POINT('',(16.9488975634749,100.232785672886,-2.83781767508715E-15));
#651=CARTESIAN_POINT('Origin',(0.,100.232785672886,6.56732477475019E-16));
#652=CARTESIAN_POINT('Origin',(0.,100.232785672886,6.56732477475019E-16));
#653=CARTESIAN_POINT('Origin',(0.,100.4,0.));
#654=CARTESIAN_POINT('',(-17.7379778790025,100.1551202875,0.));
#655=CARTESIAN_POINT('',(-2.1722757832867E-15,100.1551202875,17.7379778790025));
#656=CARTESIAN_POINT('Origin',(0.,100.1551202875,1.08613789164335E-15));
#657=CARTESIAN_POINT('',(-15.25,100.4,1.86758636869971E-15));
#658=CARTESIAN_POINT('Origin',(0.,100.1551202875,1.08613789164335E-15));
#659=CARTESIAN_POINT('Origin',(0.,99.6575247116992,0.));
#660=CARTESIAN_POINT('',(-18.186597512303,99.6085487691992,0.));
#661=CARTESIAN_POINT('',(-2.2272158430823E-15,99.6085487691992,18.186597512303));
#662=CARTESIAN_POINT('Origin',(0.,99.6085487691992,-1.11360792154115E-15));
#663=CARTESIAN_POINT('Origin',(-2.16627796016491E-15,99.6575247116992,17.6890019365025));
#664=CARTESIAN_POINT('Origin',(0.,99.6085487691992,-1.11360792154115E-15));
#665=CARTESIAN_POINT('Origin',(0.,100.106144345,0.));
#666=CARTESIAN_POINT('',(-16.337714734043,80.8238997420779,-4.00158601088566E-15));
#667=CARTESIAN_POINT('',(-2.00079300544283E-15,80.8238997420779,16.337714734043));
#668=CARTESIAN_POINT('Origin',(0.,80.8238997420779,-1.00039650272141E-15));
#669=CARTESIAN_POINT('',(-18.235573454803,100.106144345,-2.23321366620409E-15));
#670=CARTESIAN_POINT('Origin',(0.,80.8238997420779,-1.00039650272141E-15));
#671=CARTESIAN_POINT('Ctrl Pts',(0.,44.4352271551668,26.5359643186039));
#672=CARTESIAN_POINT('Ctrl Pts',(-26.5359643186039,44.4352271551668,26.5359643186039));
#673=CARTESIAN_POINT('Ctrl Pts',(-26.5359643186039,44.4352271551668,0.));
#674=CARTESIAN_POINT('Ctrl Pts',(-26.5359643186039,44.4352271551668,-26.5359643186039));
#675=CARTESIAN_POINT('Ctrl Pts',(0.,44.4352271551668,-26.5359643186039));
#676=CARTESIAN_POINT('Ctrl Pts',(26.5359643186039,44.4352271551668,-26.5359643186039));
#677=CARTESIAN_POINT('Ctrl Pts',(26.5359643186039,44.4352271551668,0.));
#678=CARTESIAN_POINT('Ctrl Pts',(26.5359643186039,44.4352271551668,26.5359643186039));
#679=CARTESIAN_POINT('Ctrl Pts',(0.,44.4352271551668,26.5359643186039));
#680=CARTESIAN_POINT('Ctrl Pts',(0.,40.5131898617635,27.8974715504568));
#681=CARTESIAN_POINT('Ctrl Pts',(-27.8974715504568,40.5131898617635,27.8974715504568));
#682=CARTESIAN_POINT('Ctrl Pts',(-27.8974715504568,40.5131898617635,0.));
#683=CARTESIAN_POINT('Ctrl Pts',(-27.8974715504568,40.5131898617635,-27.8974715504568));
#684=CARTESIAN_POINT('Ctrl Pts',(0.,40.5131898617635,-27.8974715504568));
#685=CARTESIAN_POINT('Ctrl Pts',(27.8974715504568,40.5131898617635,-27.8974715504568));
#686=CARTESIAN_POINT('Ctrl Pts',(27.8974715504568,40.5131898617635,0.));
#687=CARTESIAN_POINT('Ctrl Pts',(27.8974715504568,40.5131898617635,27.8974715504568));
#688=CARTESIAN_POINT('Ctrl Pts',(0.,40.5131898617635,27.8974715504568));
#689=CARTESIAN_POINT('Ctrl Pts',(0.,36.3616061179321,27.918229469176));
#690=CARTESIAN_POINT('Ctrl Pts',(-27.918229469176,36.3616061179321,27.918229469176));
#691=CARTESIAN_POINT('Ctrl Pts',(-27.918229469176,36.3616061179321,0.));
#692=CARTESIAN_POINT('Ctrl Pts',(-27.918229469176,36.3616061179321,-27.918229469176));
#693=CARTESIAN_POINT('Ctrl Pts',(0.,36.3616061179321,-27.918229469176));
#694=CARTESIAN_POINT('Ctrl Pts',(27.918229469176,36.3616061179321,-27.918229469176));
#695=CARTESIAN_POINT('Ctrl Pts',(27.918229469176,36.3616061179321,0.));
#696=CARTESIAN_POINT('Ctrl Pts',(27.918229469176,36.3616061179321,27.918229469176));
#697=CARTESIAN_POINT('Ctrl Pts',(0.,36.3616061179321,27.918229469176));
#698=CARTESIAN_POINT('',(-3.24971837650666E-15,44.4352271551668,26.5359643186039));
#699=CARTESIAN_POINT('Origin',(-3.57418307355305E-16,36.2366076804028,2.91854196331672));
#700=CARTESIAN_POINT('',(-26.5359643186039,44.4352271551668,0.));
#701=CARTESIAN_POINT('Origin',(0.,44.4352271551668,1.62485918825333E-15));
#702=CARTESIAN_POINT('Origin',(0.,44.4352271551668,1.62485918825333E-15));
#703=CARTESIAN_POINT('Origin',(0.,40.9838343369717,0.));
#704=CARTESIAN_POINT('',(-17.6000711687808,70.1764831423115,4.31077416432261E-15));
#705=CARTESIAN_POINT('',(-2.1553870821613E-15,70.1764831423115,17.6000711687808));
#706=CARTESIAN_POINT('Origin',(0.,70.1764831423115,1.07769354108065E-15));
#707=CARTESIAN_POINT('',(-27.7340906826345,40.9838343369717,3.39644653817507E-15));
#708=CARTESIAN_POINT('Origin',(0.,70.1764831423115,1.07769354108065E-15));
#709=CARTESIAN_POINT('Origin',(0.,78.3751026170754,0.));
#710=CARTESIAN_POINT('Origin',(-5.04768715131267E-15,78.3751026170754,41.217493524068));
#711=CARTESIAN_POINT('Origin',(0.,76.808090687719,0.));
#712=CARTESIAN_POINT('',(-1.69368524299337E-15,71.8889190028606,13.8299895461498));
#713=CARTESIAN_POINT('Origin',(-3.42906528448419E-15,76.808090687719,28.0004429593222));
#714=CARTESIAN_POINT('',(-13.8299895461498,71.8889190028606,1.69368524299337E-15));
#715=CARTESIAN_POINT('Origin',(0.,71.8889190028606,0.));
#716=CARTESIAN_POINT('',(13.8299895461498,71.8889190028606,0.));
#717=CARTESIAN_POINT('Origin',(0.,71.8889190028606,0.));
#718=CARTESIAN_POINT('Origin',(0.,71.8889190028606,0.));
#719=CARTESIAN_POINT('Origin',(0.,40.,0.));
#720=CARTESIAN_POINT('',(24.0830956608881,42.3532223760424,-5.89865720293323E-15));
#721=CARTESIAN_POINT('',(-24.0830956608881,42.3532223760424,2.94932860146662E-15));
#722=CARTESIAN_POINT('Origin',(0.,42.3532223760424,4.93038065763132E-31));
#723=CARTESIAN_POINT('',(-2.94932860146662E-15,42.3532223760424,24.0830956608881));
#724=CARTESIAN_POINT('Origin',(0.,42.3532223760424,4.93038065763132E-31));
#725=CARTESIAN_POINT('Origin',(0.,42.3532223760424,4.93038065763132E-31));
#726=CARTESIAN_POINT('',(-24.9,40.,3.04937052987691E-15));
#727=CARTESIAN_POINT('Ctrl Pts',(0.,42.3532223760425,24.0830956608883));
#728=CARTESIAN_POINT('Ctrl Pts',(-24.0830956608883,42.3532223760425,24.0830956608883));
#729=CARTESIAN_POINT('Ctrl Pts',(-24.0830956608883,42.3532223760425,0.));
#730=CARTESIAN_POINT('Ctrl Pts',(-24.0830956608883,42.3532223760425,-24.0830956608883));
#731=CARTESIAN_POINT('Ctrl Pts',(0.,42.3532223760425,-24.0830956608883));
#732=CARTESIAN_POINT('Ctrl Pts',(24.0830956608883,42.3532223760425,-24.0830956608883));
#733=CARTESIAN_POINT('Ctrl Pts',(24.0830956608883,42.3532223760425,0.));
#734=CARTESIAN_POINT('Ctrl Pts',(24.0830956608883,42.3532223760425,24.0830956608883));
#735=CARTESIAN_POINT('Ctrl Pts',(0.,42.3532223760425,24.0830956608883));
#736=CARTESIAN_POINT('Ctrl Pts',(0.,40.0000000000005,24.9));
#737=CARTESIAN_POINT('Ctrl Pts',(-24.9,40.0000000000005,24.9));
#738=CARTESIAN_POINT('Ctrl Pts',(-24.9,40.0000000000005,0.));
#739=CARTESIAN_POINT('Ctrl Pts',(-24.9,40.0000000000005,-24.9));
#740=CARTESIAN_POINT('Ctrl Pts',(0.,40.0000000000005,-24.9));
#741=CARTESIAN_POINT('Ctrl Pts',(24.9,40.0000000000005,-24.9));
#742=CARTESIAN_POINT('Ctrl Pts',(24.9,40.0000000000005,0.));
#743=CARTESIAN_POINT('Ctrl Pts',(24.9,40.0000000000005,24.9));
#744=CARTESIAN_POINT('Ctrl Pts',(0.,40.0000000000005,24.9));
#745=CARTESIAN_POINT('Ctrl Pts',(0.,37.5090497537017,24.9124547512315));
#746=CARTESIAN_POINT('Ctrl Pts',(-24.9124547512315,37.5090497537017,24.9124547512315));
#747=CARTESIAN_POINT('Ctrl Pts',(-24.9124547512315,37.5090497537017,0.));
#748=CARTESIAN_POINT('Ctrl Pts',(-24.9124547512315,37.5090497537017,-24.9124547512315));
#749=CARTESIAN_POINT('Ctrl Pts',(0.,37.5090497537017,-24.9124547512315));
#750=CARTESIAN_POINT('Ctrl Pts',(24.9124547512315,37.5090497537017,-24.9124547512315));
#751=CARTESIAN_POINT('Ctrl Pts',(24.9124547512315,37.5090497537017,0.));
#752=CARTESIAN_POINT('Ctrl Pts',(24.9124547512315,37.5090497537017,24.9124547512315));
#753=CARTESIAN_POINT('Ctrl Pts',(0.,37.5090497537017,24.9124547512315));
#754=CARTESIAN_POINT('Origin',(-1.21394855997582E-15,37.4340506911841,9.91264224771594));
#755=UNCERTAINTY_MEASURE_WITH_UNIT(LENGTH_MEASURE(0.01),#759,
'DISTANCE_ACCURACY_VALUE',
'Maximum model space distance between geometric entities at asserted c
onnectivities');
#756=UNCERTAINTY_MEASURE_WITH_UNIT(LENGTH_MEASURE(0.01),#759,
'DISTANCE_ACCURACY_VALUE',
'Maximum model space distance between geometric entities at asserted c
onnectivities');
#757=(
GEOMETRIC_REPRESENTATION_CONTEXT(3)
GLOBAL_UNCERTAINTY_ASSIGNED_CONTEXT((#755))
GLOBAL_UNIT_ASSIGNED_CONTEXT((#759,#761,#762))
REPRESENTATION_CONTEXT('','3D')
);
#758=(
GEOMETRIC_REPRESENTATION_CONTEXT(3)
GLOBAL_UNCERTAINTY_ASSIGNED_CONTEXT((#756))
GLOBAL_UNIT_ASSIGNED_CONTEXT((#759,#761,#762))
REPRESENTATION_CONTEXT('','3D')
);
#759=(
LENGTH_UNIT()
NAMED_UNIT(*)
SI_UNIT(.MILLI.,.METRE.)
);
#760=(
LENGTH_UNIT()
NAMED_UNIT(*)
SI_UNIT($,.METRE.)
);
#761=(
NAMED_UNIT(*)
PLANE_ANGLE_UNIT()
SI_UNIT($,.RADIAN.)
);
#762=(
NAMED_UNIT(*)
SI_UNIT($,.STERADIAN.)
SOLID_ANGLE_UNIT()
);
#763=SHAPE_DEFINITION_REPRESENTATION(#764,#765);
#764=PRODUCT_DEFINITION_SHAPE('',$,#767);
#765=SHAPE_REPRESENTATION('',(#383),#757);
#766=PRODUCT_DEFINITION_CONTEXT('part definition',#771,'design');
#767=PRODUCT_DEFINITION('Lil_adapter v1','Lil_adapter v1 v2',#768,#766);
#768=PRODUCT_DEFINITION_FORMATION('',$,#773);
#769=PRODUCT_RELATED_PRODUCT_CATEGORY('Lil_adapter v1 v2',
'Lil_adapter v1 v2',(#773));
#770=APPLICATION_PROTOCOL_DEFINITION('international standard',
'automotive_design',2009,#771);
#771=APPLICATION_CONTEXT(
'Core Data for Automotive Mechanical Design Process');
#772=PRODUCT_CONTEXT('part definition',#771,'mechanical');
#773=PRODUCT('Lil_adapter v1','Lil_adapter v1 v2',$,(#772));
#774=PRESENTATION_STYLE_ASSIGNMENT((#775));
#775=SURFACE_STYLE_USAGE(.BOTH.,#776);
#776=SURFACE_SIDE_STYLE('',(#777));
#777=SURFACE_STYLE_FILL_AREA(#778);
#778=FILL_AREA_STYLE('Steel - Satin',(#779));
#779=FILL_AREA_STYLE_COLOUR('Steel - Satin',#780);
#780=COLOUR_RGB('Steel - Satin',0.627450980392157,0.627450980392157,0.627450980392157);
ENDSEC;
END-ISO-10303-21;
