EESchema Schematic File Version 4
EELAYER 30 0
EELAYER END
$Descr A4 11693 8268
encoding utf-8
Sheet 1 1
Title ""
Date ""
Rev ""
Comp ""
Comment1 ""
Comment2 ""
Comment3 ""
Comment4 ""
$EndDescr
$Comp
L Breathing_Gamepad-rescue:MCP23017_SO-Interface_Expansion U8
U 1 1 5F8731E7
P 9750 2550
F 0 "U8" H 9450 3650 50  0000 C CNN
F 1 "MCP23017_SO" H 10150 1550 50  0000 C CNN
F 2 "Package_SO:SOIC-28W_7.5x17.9mm_P1.27mm" H 9950 1550 50  0001 L CNN
F 3 "http://ww1.microchip.com/downloads/en/DeviceDoc/20001952C.pdf" H 9950 1450 50  0001 L CNN
	1    9750 2550
	1    0    0    -1  
$EndComp
Wire Wire Line
	10450 1750 11100 1750
Wire Wire Line
	10450 1850 11100 1850
Wire Wire Line
	10450 1950 11100 1950
Wire Wire Line
	10450 2050 11100 2050
Wire Wire Line
	10450 2150 11100 2150
Wire Wire Line
	10450 2250 11100 2250
Wire Wire Line
	10450 2350 11100 2350
Wire Wire Line
	10450 2450 11100 2450
Text Label 11100 1750 2    50   ~ 0
Button_N
Text Label 11100 1850 2    50   ~ 0
Button_E
Text Label 11100 1950 2    50   ~ 0
Button_S
Text Label 11100 2050 2    50   ~ 0
Button_W
Text Label 11100 2150 2    50   ~ 0
Button_A
Text Label 11100 2250 2    50   ~ 0
Button_B
Text Label 11100 2350 2    50   ~ 0
Button_X
Text Label 11100 2450 2    50   ~ 0
Button_Y
Wire Wire Line
	10450 2650 11100 2650
Wire Wire Line
	10450 2750 11100 2750
Wire Wire Line
	10450 2850 11100 2850
Wire Wire Line
	10450 2950 11100 2950
Wire Wire Line
	10450 3050 11100 3050
Wire Wire Line
	10450 3150 11100 3150
Wire Wire Line
	10450 3250 11100 3250
Wire Wire Line
	10450 3350 11100 3350
Text Label 11100 2650 2    50   ~ 0
Button_L
Text Label 11100 2750 2    50   ~ 0
Button_R
Text Label 11100 2850 2    50   ~ 0
Joy_L
Text Label 11100 2950 2    50   ~ 0
Joy_R
Text Label 8400 1750 0    50   ~ 0
Wire_SDA
Text Label 8400 1850 0    50   ~ 0
Wire_SCL
Wire Wire Line
	9050 1750 8800 1750
Wire Wire Line
	9050 1850 9000 1850
Wire Wire Line
	9050 2450 8600 2450
Wire Wire Line
	9050 2650 8600 2650
Wire Wire Line
	9050 3150 8900 3150
Wire Wire Line
	8900 3150 8900 3250
Wire Wire Line
	9050 3250 8900 3250
Connection ~ 8900 3250
Wire Wire Line
	8900 3250 8900 3350
Wire Wire Line
	9050 3350 8900 3350
Connection ~ 8900 3350
Wire Wire Line
	8900 3350 8900 3600
$Comp
L Breathing_Gamepad-rescue:GND-power #PWR048
U 1 1 5F87FED9
P 8900 3600
F 0 "#PWR048" H 8900 3350 50  0001 C CNN
F 1 "GND" H 8905 3427 50  0000 C CNN
F 2 "" H 8900 3600 50  0001 C CNN
F 3 "" H 8900 3600 50  0001 C CNN
	1    8900 3600
	1    0    0    -1  
$EndComp
$Comp
L Breathing_Gamepad-rescue:GND-power #PWR051
U 1 1 5F880C9D
P 9750 3750
F 0 "#PWR051" H 9750 3500 50  0001 C CNN
F 1 "GND" H 9755 3577 50  0000 C CNN
F 2 "" H 9750 3750 50  0001 C CNN
F 3 "" H 9750 3750 50  0001 C CNN
	1    9750 3750
	1    0    0    -1  
$EndComp
$Comp
L Device:C C15
U 1 1 5F882344
P 10000 1250
F 0 "C15" H 10115 1296 50  0000 L CNN
F 1 "0.1u" H 10115 1205 50  0000 L CNN
F 2 "Capacitor_SMD:C_0603_1608Metric" H 10038 1100 50  0001 C CNN
F 3 "~" H 10000 1250 50  0001 C CNN
	1    10000 1250
	1    0    0    -1  
$EndComp
$Comp
L Breathing_Gamepad-rescue:GND-power #PWR053
U 1 1 5F883297
P 10000 1450
F 0 "#PWR053" H 10000 1200 50  0001 C CNN
F 1 "GND" H 10005 1277 50  0000 C CNN
F 2 "" H 10000 1450 50  0001 C CNN
F 3 "" H 10000 1450 50  0001 C CNN
	1    10000 1450
	1    0    0    -1  
$EndComp
Wire Wire Line
	9750 950  9750 1050
Wire Wire Line
	10000 1400 10000 1450
Wire Wire Line
	10000 1100 10000 1050
Wire Wire Line
	10000 1050 9750 1050
Connection ~ 9750 1050
Wire Wire Line
	9750 1050 9750 1450
$Comp
L Breathing_Gamepad-rescue:SW_Push_45deg-Switch SW10
U 1 1 5F885D56
P 10700 4550
F 0 "SW10" H 10700 4831 50  0000 C CNN
F 1 "SW_Push_45deg" H 10700 4740 50  0000 C CNN
F 2 "Button_Switch_SMD:SW_SPST_Omron_B3FS-101xP" H 10700 4550 50  0001 C CNN
F 3 "~" H 10700 4550 50  0001 C CNN
	1    10700 4550
	1    0    0    -1  
$EndComp
$Comp
L Breathing_Gamepad-rescue:SW_Push_45deg-Switch SW11
U 1 1 5F888697
P 10700 5000
F 0 "SW11" H 10700 5281 50  0000 C CNN
F 1 "SW_Push_45deg" H 10700 5190 50  0000 C CNN
F 2 "Button_Switch_SMD:SW_SPST_Omron_B3FS-101xP" H 10700 5000 50  0001 C CNN
F 3 "~" H 10700 5000 50  0001 C CNN
	1    10700 5000
	1    0    0    -1  
$EndComp
$Comp
L Breathing_Gamepad-rescue:SW_Push_45deg-Switch SW12
U 1 1 5F888F76
P 10700 5450
F 0 "SW12" H 10700 5731 50  0000 C CNN
F 1 "SW_Push_45deg" H 10700 5640 50  0000 C CNN
F 2 "Button_Switch_SMD:SW_SPST_Omron_B3FS-101xP" H 10700 5450 50  0001 C CNN
F 3 "~" H 10700 5450 50  0001 C CNN
	1    10700 5450
	1    0    0    -1  
$EndComp
$Comp
L Breathing_Gamepad-rescue:SW_Push_45deg-Switch SW13
U 1 1 5F889AA9
P 10700 5900
F 0 "SW13" H 10700 6181 50  0000 C CNN
F 1 "SW_Push_45deg" H 10700 6090 50  0000 C CNN
F 2 "Button_Switch_SMD:SW_SPST_Omron_B3FS-101xP" H 10700 5900 50  0001 C CNN
F 3 "~" H 10700 5900 50  0001 C CNN
	1    10700 5900
	1    0    0    -1  
$EndComp
$Comp
L Breathing_Gamepad-rescue:SW_Push_45deg-Switch SW6
U 1 1 5F88A581
P 9700 4550
F 0 "SW6" H 9700 4831 50  0000 C CNN
F 1 "SW_Push_45deg" H 9700 4740 50  0000 C CNN
F 2 "Button_Switch_SMD:SW_SPST_Omron_B3FS-101xP" H 9700 4550 50  0001 C CNN
F 3 "~" H 9700 4550 50  0001 C CNN
	1    9700 4550
	1    0    0    -1  
$EndComp
$Comp
L Breathing_Gamepad-rescue:SW_Push_45deg-Switch SW7
U 1 1 5F88B23A
P 9700 5000
F 0 "SW7" H 9700 5281 50  0000 C CNN
F 1 "SW_Push_45deg" H 9700 5190 50  0000 C CNN
F 2 "Button_Switch_SMD:SW_SPST_Omron_B3FS-101xP" H 9700 5000 50  0001 C CNN
F 3 "~" H 9700 5000 50  0001 C CNN
	1    9700 5000
	1    0    0    -1  
$EndComp
$Comp
L Breathing_Gamepad-rescue:SW_Push_45deg-Switch SW8
U 1 1 5F88BA44
P 9700 5450
F 0 "SW8" H 9700 5731 50  0000 C CNN
F 1 "SW_Push_45deg" H 9700 5640 50  0000 C CNN
F 2 "Button_Switch_SMD:SW_SPST_Omron_B3FS-101xP" H 9700 5450 50  0001 C CNN
F 3 "~" H 9700 5450 50  0001 C CNN
	1    9700 5450
	1    0    0    -1  
$EndComp
$Comp
L Breathing_Gamepad-rescue:SW_Push_45deg-Switch SW9
U 1 1 5F88C28D
P 9700 5900
F 0 "SW9" H 9700 6181 50  0000 C CNN
F 1 "SW_Push_45deg" H 9700 6090 50  0000 C CNN
F 2 "Button_Switch_SMD:SW_SPST_Omron_B3FS-101xP" H 9700 5900 50  0001 C CNN
F 3 "~" H 9700 5900 50  0001 C CNN
	1    9700 5900
	1    0    0    -1  
$EndComp
$Comp
L Breathing_Gamepad-rescue:SW_Push_45deg-Switch SW2
U 1 1 5F88D38E
P 8700 4550
F 0 "SW2" H 8700 4831 50  0000 C CNN
F 1 "SW_Push_45deg" H 8700 4740 50  0000 C CNN
F 2 "SF_Switch:TACTILE_SWITCH_PTH_RIGHT_ANGLE_KIT" H 8700 4550 50  0001 C CNN
F 3 "~" H 8700 4550 50  0001 C CNN
	1    8700 4550
	1    0    0    -1  
$EndComp
$Comp
L Breathing_Gamepad-rescue:SW_Push_45deg-Switch SW3
U 1 1 5F88EB3A
P 8700 5000
F 0 "SW3" H 8700 5281 50  0000 C CNN
F 1 "SW_Push_45deg" H 8700 5190 50  0000 C CNN
F 2 "SF_Switch:TACTILE_SWITCH_PTH_RIGHT_ANGLE_KIT" H 8700 5000 50  0001 C CNN
F 3 "~" H 8700 5000 50  0001 C CNN
	1    8700 5000
	1    0    0    -1  
$EndComp
$Comp
L Breathing_Gamepad-rescue:SW_Push_45deg-Switch SW4
U 1 1 5F88F67A
P 8700 5450
F 0 "SW4" H 8700 5731 50  0000 C CNN
F 1 "SW_Push_45deg" H 8700 5640 50  0000 C CNN
F 2 "Button_Switch_SMD:SW_SPST_Omron_B3FS-101xP" H 8700 5450 50  0001 C CNN
F 3 "~" H 8700 5450 50  0001 C CNN
	1    8700 5450
	1    0    0    -1  
$EndComp
$Comp
L Breathing_Gamepad-rescue:SW_Push_45deg-Switch SW5
U 1 1 5F8903C8
P 8700 5900
F 0 "SW5" H 8700 6181 50  0000 C CNN
F 1 "SW_Push_45deg" H 8700 6090 50  0000 C CNN
F 2 "Button_Switch_SMD:SW_SPST_Omron_B3FS-101xP" H 8700 5900 50  0001 C CNN
F 3 "~" H 8700 5900 50  0001 C CNN
	1    8700 5900
	1    0    0    -1  
$EndComp
Wire Wire Line
	8800 4650 8900 4650
Wire Wire Line
	8900 4650 8900 5100
Wire Wire Line
	9800 4650 9900 4650
Wire Wire Line
	9900 4650 9900 5100
Wire Wire Line
	10800 4650 10900 4650
Wire Wire Line
	10900 4650 10900 5100
$Comp
L Breathing_Gamepad-rescue:GND-power #PWR049
U 1 1 5F894599
P 8900 6200
F 0 "#PWR049" H 8900 5950 50  0001 C CNN
F 1 "GND" H 8905 6027 50  0000 C CNN
F 2 "" H 8900 6200 50  0001 C CNN
F 3 "" H 8900 6200 50  0001 C CNN
	1    8900 6200
	1    0    0    -1  
$EndComp
$Comp
L Breathing_Gamepad-rescue:GND-power #PWR052
U 1 1 5F894DDC
P 9900 6200
F 0 "#PWR052" H 9900 5950 50  0001 C CNN
F 1 "GND" H 9905 6027 50  0000 C CNN
F 2 "" H 9900 6200 50  0001 C CNN
F 3 "" H 9900 6200 50  0001 C CNN
	1    9900 6200
	1    0    0    -1  
$EndComp
$Comp
L Breathing_Gamepad-rescue:GND-power #PWR054
U 1 1 5F8954DF
P 10900 6200
F 0 "#PWR054" H 10900 5950 50  0001 C CNN
F 1 "GND" H 10905 6027 50  0000 C CNN
F 2 "" H 10900 6200 50  0001 C CNN
F 3 "" H 10900 6200 50  0001 C CNN
	1    10900 6200
	1    0    0    -1  
$EndComp
Wire Wire Line
	8800 5100 8900 5100
Connection ~ 8900 5100
Wire Wire Line
	8900 5100 8900 5550
Wire Wire Line
	8800 5550 8900 5550
Connection ~ 8900 5550
Wire Wire Line
	8900 5550 8900 6000
Wire Wire Line
	8800 6000 8900 6000
Connection ~ 8900 6000
Wire Wire Line
	8900 6000 8900 6200
Wire Wire Line
	9800 5100 9900 5100
Connection ~ 9900 5100
Wire Wire Line
	9900 5100 9900 5550
Wire Wire Line
	9800 5550 9900 5550
Connection ~ 9900 5550
Wire Wire Line
	9900 5550 9900 6000
Wire Wire Line
	9800 6000 9900 6000
Connection ~ 9900 6000
Wire Wire Line
	9900 6000 9900 6200
Wire Wire Line
	10800 5100 10900 5100
Connection ~ 10900 5100
Wire Wire Line
	10900 5100 10900 5550
Wire Wire Line
	10800 5550 10900 5550
Connection ~ 10900 5550
Wire Wire Line
	10900 5550 10900 6000
Wire Wire Line
	10800 6000 10900 6000
Connection ~ 10900 6000
Wire Wire Line
	10900 6000 10900 6200
Wire Wire Line
	10600 4450 10050 4450
Wire Wire Line
	10600 4900 10050 4900
Wire Wire Line
	10600 5350 10050 5350
Wire Wire Line
	10600 5800 10050 5800
Wire Wire Line
	9600 4450 9050 4450
Wire Wire Line
	9600 4900 9050 4900
Wire Wire Line
	9600 5350 9050 5350
Wire Wire Line
	9600 5800 9050 5800
Wire Wire Line
	8600 4450 7900 4450
Wire Wire Line
	8600 4900 7900 4900
Wire Wire Line
	8600 5350 7900 5350
Wire Wire Line
	8600 5800 7900 5800
Wire Wire Line
	9750 3650 9750 3750
$Comp
L Breathing_Gamepad-rescue:USB_B_Micro-Connector J1
U 1 1 5F8AD05B
P 1000 6500
F 0 "J1" H 1057 6967 50  0000 C CNN
F 1 "USB_B_Micro" H 1057 6876 50  0000 C CNN
F 2 "Connector_USB:USB_Micro-B_Molex-105017-0001" H 1150 6450 50  0001 C CNN
F 3 "~" H 1150 6450 50  0001 C CNN
	1    1000 6500
	1    0    0    -1  
$EndComp
$Comp
L Breathing_Gamepad-rescue:GND-power #PWR03
U 1 1 5F8AF988
P 1000 7050
F 0 "#PWR03" H 1000 6800 50  0001 C CNN
F 1 "GND" H 1005 6877 50  0000 C CNN
F 2 "" H 1000 7050 50  0001 C CNN
F 3 "" H 1000 7050 50  0001 C CNN
	1    1000 7050
	1    0    0    -1  
$EndComp
$Comp
L Breathing_Gamepad-rescue:GND-power #PWR024
U 1 1 5F8B0996
P 3400 7550
F 0 "#PWR024" H 3400 7300 50  0001 C CNN
F 1 "GND" H 3405 7377 50  0000 C CNN
F 2 "" H 3400 7550 50  0001 C CNN
F 3 "" H 3400 7550 50  0001 C CNN
	1    3400 7550
	1    0    0    -1  
$EndComp
NoConn ~ 3550 5350
NoConn ~ 2650 6950
NoConn ~ 4050 6850
NoConn ~ 4050 6950
NoConn ~ 4050 5650
NoConn ~ 4050 5750
NoConn ~ 4050 5950
NoConn ~ 4050 6550
NoConn ~ 2650 6450
NoConn ~ 2650 6550
NoConn ~ 2650 6650
NoConn ~ 2650 6750
$Comp
L Breathing_Gamepad-rescue:CP2104-Interface_USB U4
U 1 1 5F86E0E2
P 3350 6250
F 0 "U4" H 2900 5250 50  0000 C CNN
F 1 "CP2102N" H 3800 5250 50  0000 C CNN
F 2 "Package_DFN_QFN:QFN-24-1EP_4x4mm_P0.5mm_EP2.6x2.6mm" H 3500 5300 50  0001 L CNN
F 3 "https://www.silabs.com/documents/public/data-sheets/cp2104.pdf" H 2800 7500 50  0001 C CNN
	1    3350 6250
	1    0    0    -1  
$EndComp
Wire Wire Line
	4050 6150 4450 6150
Wire Wire Line
	4050 6250 4450 6250
Wire Wire Line
	3350 7250 3350 7400
Wire Wire Line
	3350 7400 3400 7400
Wire Wire Line
	3450 7400 3450 7250
Wire Wire Line
	3400 7550 3400 7400
Connection ~ 3400 7400
Wire Wire Line
	3400 7400 3450 7400
Wire Wire Line
	900  6900 900  6950
Wire Wire Line
	900  6950 1000 6950
Wire Wire Line
	1000 6950 1000 7050
Wire Wire Line
	1000 6900 1000 6950
Connection ~ 1000 6950
Wire Wire Line
	2450 6600 2450 6150
Wire Wire Line
	2450 6150 2650 6150
Wire Wire Line
	2350 6500 2350 6250
Wire Wire Line
	2350 6250 2650 6250
Wire Wire Line
	3350 5350 3350 5150
Wire Wire Line
	2500 5150 2500 5250
Wire Wire Line
	2650 5650 2650 5150
Wire Wire Line
	2650 5150 2500 5150
Wire Wire Line
	3150 5350 3150 5150
Wire Wire Line
	3150 5150 3350 5150
$Comp
L Device:C C4
U 1 1 5F8EABA6
P 2500 5400
F 0 "C4" H 2350 5600 50  0000 L CNN
F 1 "0.1u" H 2300 5500 50  0000 L CNN
F 2 "Capacitor_SMD:C_0603_1608Metric" H 2538 5250 50  0001 C CNN
F 3 "~" H 2500 5400 50  0001 C CNN
	1    2500 5400
	1    0    0    -1  
$EndComp
$Comp
L Breathing_Gamepad-rescue:GND-power #PWR017
U 1 1 5F8EB516
P 2500 5600
F 0 "#PWR017" H 2500 5350 50  0001 C CNN
F 1 "GND" H 2505 5427 50  0000 C CNN
F 2 "" H 2500 5600 50  0001 C CNN
F 3 "" H 2500 5600 50  0001 C CNN
	1    2500 5600
	1    0    0    -1  
$EndComp
Wire Wire Line
	2500 5550 2500 5600
$Comp
L Breathing_Gamepad-rescue:VBUS-power #PWR08
U 1 1 5F8F0504
P 1650 5100
F 0 "#PWR08" H 1650 4950 50  0001 C CNN
F 1 "VBUS" H 1665 5273 50  0000 C CNN
F 2 "" H 1650 5100 50  0001 C CNN
F 3 "" H 1650 5100 50  0001 C CNN
	1    1650 5100
	1    0    0    -1  
$EndComp
Text Label 4450 6150 2    50   ~ 0
RXD0
Text Label 4450 6250 2    50   ~ 0
TXD0
Text Label 5400 5550 2    50   ~ 0
EN
Text Label 5400 6200 2    50   ~ 0
GPIO0
$Comp
L Breathing_Gamepad-rescue:MCP73831-2-OT-Battery_Management U1
U 1 1 5F9D0009
P 1250 1850
F 0 "U1" H 1400 2200 50  0000 C CNN
F 1 "MCP73831-2-OT" H 850 2200 50  0000 C CNN
F 2 "Package_TO_SOT_SMD:SOT-23-5" H 1300 1600 50  0001 L CIN
F 3 "http://ww1.microchip.com/downloads/en/DeviceDoc/20001984g.pdf" H 1100 1800 50  0001 C CNN
	1    1250 1850
	1    0    0    -1  
$EndComp
$Comp
L Device:R R1
U 1 1 5F9F16D6
P 700 2200
F 0 "R1" H 770 2246 50  0000 L CNN
F 1 "2K" H 770 2155 50  0000 L CNN
F 2 "Resistor_SMD:R_0603_1608Metric" V 630 2200 50  0001 C CNN
F 3 "~" H 700 2200 50  0001 C CNN
	1    700  2200
	1    0    0    -1  
$EndComp
$Comp
L Breathing_Gamepad-rescue:GND-power #PWR01
U 1 1 5F9F2A25
P 700 2450
F 0 "#PWR01" H 700 2200 50  0001 C CNN
F 1 "GND" H 705 2277 50  0000 C CNN
F 2 "" H 700 2450 50  0001 C CNN
F 3 "" H 700 2450 50  0001 C CNN
	1    700  2450
	1    0    0    -1  
$EndComp
$Comp
L Breathing_Gamepad-rescue:GND-power #PWR05
U 1 1 5F9F3ECF
P 1250 2450
F 0 "#PWR05" H 1250 2200 50  0001 C CNN
F 1 "GND" H 1255 2277 50  0000 C CNN
F 2 "" H 1250 2450 50  0001 C CNN
F 3 "" H 1250 2450 50  0001 C CNN
	1    1250 2450
	1    0    0    -1  
$EndComp
Wire Wire Line
	1250 2150 1250 2450
Wire Wire Line
	850  1950 700  1950
Wire Wire Line
	700  1950 700  2050
Wire Wire Line
	700  2350 700  2450
$Comp
L Device:R R4
U 1 1 5FA172EF
P 1750 1450
F 0 "R4" H 1820 1496 50  0000 L CNN
F 1 "470" H 1820 1405 50  0000 L CNN
F 2 "Resistor_SMD:R_0603_1608Metric" V 1680 1450 50  0001 C CNN
F 3 "~" H 1750 1450 50  0001 C CNN
	1    1750 1450
	1    0    0    -1  
$EndComp
$Comp
L Device:R R6
U 1 1 5FA2AFC4
P 2200 1250
F 0 "R6" H 2100 1250 50  0000 C CNN
F 1 "47K" H 2050 1150 50  0000 C CNN
F 2 "Resistor_SMD:R_0603_1608Metric" V 2130 1250 50  0001 C CNN
F 3 "~" H 2200 1250 50  0001 C CNN
	1    2200 1250
	-1   0    0    1   
$EndComp
$Comp
L Device:R R7
U 1 1 5FA2BD90
P 2200 1700
F 0 "R7" H 2050 1750 50  0000 C CNN
F 1 "47K" H 2050 1650 50  0000 C CNN
F 2 "Resistor_SMD:R_0603_1608Metric" V 2130 1700 50  0001 C CNN
F 3 "~" H 2200 1700 50  0001 C CNN
	1    2200 1700
	-1   0    0    1   
$EndComp
$Comp
L Device:LED D2
U 1 1 5FA2CC09
P 1750 1000
F 0 "D2" V 1789 882 50  0000 R CNN
F 1 "LED" V 1698 882 50  0000 R CNN
F 2 "LED_SMD:LED_0603_1608Metric" H 1750 1000 50  0001 C CNN
F 3 "~" H 1750 1000 50  0001 C CNN
	1    1750 1000
	0    -1   -1   0   
$EndComp
$Comp
L Breathing_Gamepad-rescue:+BATT-power #PWR012
U 1 1 5FA2E1A5
P 2200 750
F 0 "#PWR012" H 2200 600 50  0001 C CNN
F 1 "+BATT" H 2215 923 50  0000 C CNN
F 2 "" H 2200 750 50  0001 C CNN
F 3 "" H 2200 750 50  0001 C CNN
	1    2200 750 
	1    0    0    -1  
$EndComp
$Comp
L Breathing_Gamepad-rescue:VBUS-power #PWR04
U 1 1 5FA2F0C5
P 1250 750
F 0 "#PWR04" H 1250 600 50  0001 C CNN
F 1 "VBUS" H 1265 923 50  0000 C CNN
F 2 "" H 1250 750 50  0001 C CNN
F 3 "" H 1250 750 50  0001 C CNN
	1    1250 750 
	1    0    0    -1  
$EndComp
Wire Wire Line
	1250 1550 1250 800 
Wire Wire Line
	1750 850  1750 800 
Wire Wire Line
	1750 800  1250 800 
Connection ~ 1250 800 
Wire Wire Line
	1250 800  1250 750 
Wire Wire Line
	1750 1150 1750 1300
Wire Wire Line
	1750 1600 1750 1950
Wire Wire Line
	1750 1950 1650 1950
Wire Wire Line
	2200 750  2200 950 
$Comp
L Breathing_Gamepad-rescue:GND-power #PWR013
U 1 1 5FA805EA
P 2200 1950
F 0 "#PWR013" H 2200 1700 50  0001 C CNN
F 1 "GND" H 2205 1777 50  0000 C CNN
F 2 "" H 2200 1950 50  0001 C CNN
F 3 "" H 2200 1950 50  0001 C CNN
	1    2200 1950
	1    0    0    -1  
$EndComp
Wire Wire Line
	1900 2300 1900 2450
Wire Wire Line
	1900 1750 1900 2000
Wire Wire Line
	1650 1750 1900 1750
$Comp
L Breathing_Gamepad-rescue:GND-power #PWR010
U 1 1 5F9F34A9
P 1900 2450
F 0 "#PWR010" H 1900 2200 50  0001 C CNN
F 1 "GND" H 1905 2277 50  0000 C CNN
F 2 "" H 1900 2450 50  0001 C CNN
F 3 "" H 1900 2450 50  0001 C CNN
	1    1900 2450
	1    0    0    -1  
$EndComp
$Comp
L Device:C C2
U 1 1 5F9F08FC
P 1900 2150
F 0 "C2" H 1650 2200 50  0000 L CNN
F 1 "4.7u" H 1600 2100 50  0000 L CNN
F 2 "Capacitor_SMD:C_0603_1608Metric" H 1938 2000 50  0001 C CNN
F 3 "~" H 1900 2150 50  0001 C CNN
	1    1900 2150
	1    0    0    -1  
$EndComp
Connection ~ 1900 1750
Connection ~ 900  3750
Wire Wire Line
	650  3750 650  4150
Wire Wire Line
	900  3750 650  3750
$Comp
L Breathing_Gamepad-rescue:+BATT-power #PWR06
U 1 1 5F9B3E57
P 1350 3200
F 0 "#PWR06" H 1350 3050 50  0001 C CNN
F 1 "+BATT" H 1365 3373 50  0000 C CNN
F 2 "" H 1350 3200 50  0001 C CNN
F 3 "" H 1350 3200 50  0001 C CNN
	1    1350 3200
	1    0    0    -1  
$EndComp
Wire Wire Line
	900  3650 900  3750
$Comp
L Breathing_Gamepad-rescue:VBUS-power #PWR02
U 1 1 5F9AC8C0
P 900 3650
F 0 "#PWR02" H 900 3500 50  0001 C CNN
F 1 "VBUS" H 915 3823 50  0000 C CNN
F 2 "" H 900 3650 50  0001 C CNN
F 3 "" H 900 3650 50  0001 C CNN
	1    900  3650
	1    0    0    -1  
$EndComp
$Comp
L Breathing_Gamepad-rescue:GND-power #PWR09
U 1 1 5F9AB691
P 1650 6100
F 0 "#PWR09" H 1650 5850 50  0001 C CNN
F 1 "GND" H 1655 5927 50  0000 C CNN
F 2 "" H 1650 6100 50  0001 C CNN
F 3 "" H 1650 6100 50  0001 C CNN
	1    1650 6100
	1    0    0    -1  
$EndComp
Wire Wire Line
	800  4150 650  4150
Wire Wire Line
	1050 3750 900  3750
Wire Wire Line
	1350 4150 1600 4150
Connection ~ 1350 4150
Wire Wire Line
	1350 3950 1350 4150
Wire Wire Line
	1100 4150 1350 4150
$Comp
L Breathing_Gamepad-rescue:DMG2301L-Transistor_FET Q1
U 1 1 5F985BA3
P 1250 3750
F 0 "Q1" H 1454 3796 50  0000 L CNN
F 1 "DMG2301L" H 1454 3705 50  0000 L CNN
F 2 "Package_TO_SOT_SMD:SOT-23" H 1450 3675 50  0001 L CIN
F 3 "https://www.diodes.com/assets/Datasheets/DMG2301L.pdf" H 1250 3750 50  0001 L CNN
	1    1250 3750
	1    0    0    -1  
$EndComp
$Comp
L Device:D_Schottky D1
U 1 1 5F983A58
P 950 4150
F 0 "D1" H 950 4367 50  0000 C CNN
F 1 "D_Schottky" H 950 4276 50  0000 C CNN
F 2 "Diode_SMD:D_SOD-123" H 950 4150 50  0001 C CNN
F 3 "~" H 950 4150 50  0001 C CNN
	1    950  4150
	-1   0    0    -1  
$EndComp
Wire Wire Line
	1600 4450 1600 4550
Wire Wire Line
	2050 4150 2150 4150
Connection ~ 1600 4150
Wire Wire Line
	1750 4150 1600 4150
Wire Wire Line
	1600 4050 1600 4150
Wire Wire Line
	2450 4450 2450 4550
Wire Wire Line
	3000 4450 3000 4550
Wire Wire Line
	3400 4450 3400 4550
Connection ~ 3400 4050
Wire Wire Line
	3000 4050 3400 4050
Connection ~ 3000 4050
Wire Wire Line
	3000 4150 3000 4050
Wire Wire Line
	3400 4050 3400 4150
Wire Wire Line
	2750 4050 3000 4050
$Comp
L Breathing_Gamepad-rescue:GND-power #PWR07
U 1 1 5F9518E9
P 1600 4550
F 0 "#PWR07" H 1600 4300 50  0001 C CNN
F 1 "GND" H 1605 4377 50  0000 C CNN
F 2 "" H 1600 4550 50  0001 C CNN
F 3 "" H 1600 4550 50  0001 C CNN
	1    1600 4550
	1    0    0    -1  
$EndComp
$Comp
L Breathing_Gamepad-rescue:GND-power #PWR016
U 1 1 5F95139A
P 2450 4550
F 0 "#PWR016" H 2450 4300 50  0001 C CNN
F 1 "GND" H 2455 4377 50  0000 C CNN
F 2 "" H 2450 4550 50  0001 C CNN
F 3 "" H 2450 4550 50  0001 C CNN
	1    2450 4550
	1    0    0    -1  
$EndComp
$Comp
L Breathing_Gamepad-rescue:GND-power #PWR023
U 1 1 5F950C9F
P 3400 4550
F 0 "#PWR023" H 3400 4300 50  0001 C CNN
F 1 "GND" H 3405 4377 50  0000 C CNN
F 2 "" H 3400 4550 50  0001 C CNN
F 3 "" H 3400 4550 50  0001 C CNN
	1    3400 4550
	1    0    0    -1  
$EndComp
$Comp
L Breathing_Gamepad-rescue:GND-power #PWR019
U 1 1 5F94FE32
P 3000 4550
F 0 "#PWR019" H 3000 4300 50  0001 C CNN
F 1 "GND" H 3005 4377 50  0000 C CNN
F 2 "" H 3000 4550 50  0001 C CNN
F 3 "" H 3000 4550 50  0001 C CNN
	1    3000 4550
	1    0    0    -1  
$EndComp
$Comp
L Device:R R5
U 1 1 5F94AFB9
P 1900 4150
F 0 "R5" V 2000 4250 50  0000 C CNN
F 1 "47K" V 2000 4100 50  0000 C CNN
F 2 "Resistor_SMD:R_0603_1608Metric" V 1830 4150 50  0001 C CNN
F 3 "~" H 1900 4150 50  0001 C CNN
	1    1900 4150
	0    1    1    0   
$EndComp
$Comp
L Device:C C1
U 1 1 5F94A21F
P 1600 4300
F 0 "C1" H 1350 4350 50  0000 L CNN
F 1 "4.7u" H 1300 4250 50  0000 L CNN
F 2 "Capacitor_SMD:C_0603_1608Metric" H 1638 4150 50  0001 C CNN
F 3 "~" H 1600 4300 50  0001 C CNN
	1    1600 4300
	1    0    0    -1  
$EndComp
$Comp
L Device:C C7
U 1 1 5F949AB5
P 3400 4300
F 0 "C7" H 3515 4346 50  0000 L CNN
F 1 "0.1u" H 3515 4255 50  0000 L CNN
F 2 "Capacitor_SMD:C_0603_1608Metric" H 3438 4150 50  0001 C CNN
F 3 "~" H 3400 4300 50  0001 C CNN
	1    3400 4300
	1    0    0    -1  
$EndComp
$Comp
L Device:C C5
U 1 1 5F948FD2
P 3000 4300
F 0 "C5" H 3115 4346 50  0000 L CNN
F 1 "1u" H 3115 4255 50  0000 L CNN
F 2 "Capacitor_SMD:C_0603_1608Metric" H 3038 4150 50  0001 C CNN
F 3 "~" H 3000 4300 50  0001 C CNN
	1    3000 4300
	1    0    0    -1  
$EndComp
$Comp
L Breathing_Gamepad-rescue:AP2112K-3.3-Regulator_Linear U2
U 1 1 5F946F59
P 2450 4150
F 0 "U2" H 2450 4492 50  0000 C CNN
F 1 "TLV70233" H 2450 4401 50  0000 C CNN
F 2 "Package_TO_SOT_SMD:SOT-23-5" H 2450 4475 50  0001 C CNN
F 3 "https://www.diodes.com/assets/Datasheets/AP2112.pdf" H 2450 4250 50  0001 C CNN
	1    2450 4150
	1    0    0    -1  
$EndComp
Wire Wire Line
	7050 4150 7050 4250
$Comp
L Breathing_Gamepad-rescue:GND-power #PWR042
U 1 1 5F9B449B
P 7050 4250
F 0 "#PWR042" H 7050 4000 50  0001 C CNN
F 1 "GND" H 7055 4077 50  0000 C CNN
F 2 "" H 7050 4250 50  0001 C CNN
F 3 "" H 7050 4250 50  0001 C CNN
	1    7050 4250
	1    0    0    -1  
$EndComp
$Comp
L Breathing_Gamepad-rescue:Conn_01x02_Male-Connector J2
U 1 1 5FB56A78
P 2700 950
F 0 "J2" H 2672 924 50  0000 R CNN
F 1 "Battery" H 3000 1050 50  0000 R CNN
F 2 "Connector_PinSocket_2.54mm:PinSocket_1x02_P2.54mm_Vertical" H 2700 950 50  0001 C CNN
F 3 "~" H 2700 950 50  0001 C CNN
	1    2700 950 
	-1   0    0    -1  
$EndComp
Wire Wire Line
	6250 5400 6800 5400
Wire Wire Line
	6250 5500 6800 5500
Wire Wire Line
	6250 5600 6800 5600
Wire Wire Line
	6250 5700 6800 5700
$Comp
L Breathing_Gamepad-rescue:GND-power #PWR044
U 1 1 5FBBDEE5
P 7150 5850
F 0 "#PWR044" H 7150 5600 50  0001 C CNN
F 1 "GND" H 7155 5677 50  0000 C CNN
F 2 "" H 7150 5850 50  0001 C CNN
F 3 "" H 7150 5850 50  0001 C CNN
	1    7150 5850
	1    0    0    -1  
$EndComp
$Comp
L Breathing_Gamepad-rescue:+3V3-power #PWR022
U 1 1 5FBBF74F
P 3400 3850
F 0 "#PWR022" H 3400 3700 50  0001 C CNN
F 1 "+3V3" H 3415 4023 50  0000 C CNN
F 2 "" H 3400 3850 50  0001 C CNN
F 3 "" H 3400 3850 50  0001 C CNN
	1    3400 3850
	1    0    0    -1  
$EndComp
$Comp
L Device:C C12
U 1 1 5FBC1308
P 7150 5500
F 0 "C12" H 7265 5546 50  0000 L CNN
F 1 "1u" H 7265 5455 50  0000 L CNN
F 2 "Capacitor_SMD:C_0603_1608Metric" H 7188 5350 50  0001 C CNN
F 3 "~" H 7150 5500 50  0001 C CNN
	1    7150 5500
	1    0    0    -1  
$EndComp
Wire Wire Line
	7150 5350 7150 5200
Wire Wire Line
	7150 5850 7150 5800
Connection ~ 7150 5200
Wire Wire Line
	7150 5200 7150 5150
$Comp
L Device:R R9
U 1 1 5FBEC36B
P 3450 1650
F 0 "R9" H 3300 1750 50  0000 C CNN
F 1 "1K" H 3300 1650 50  0000 C CNN
F 2 "Resistor_SMD:R_0603_1608Metric" V 3380 1650 50  0001 C CNN
F 3 "~" H 3450 1650 50  0001 C CNN
	1    3450 1650
	1    0    0    -1  
$EndComp
$Comp
L Device:LED D5
U 1 1 5FBEE6EA
P 3450 2200
F 0 "D5" V 3489 2082 50  0000 R CNN
F 1 "LED" V 3398 2082 50  0000 R CNN
F 2 "LED_SMD:LED_0603_1608Metric" H 3450 2200 50  0001 C CNN
F 3 "~" H 3450 2200 50  0001 C CNN
	1    3450 2200
	0    -1   -1   0   
$EndComp
$Comp
L Breathing_Gamepad-rescue:GND-power #PWR025
U 1 1 5FBF0299
P 3450 2450
F 0 "#PWR025" H 3450 2200 50  0001 C CNN
F 1 "GND" H 3455 2277 50  0000 C CNN
F 2 "" H 3450 2450 50  0001 C CNN
F 3 "" H 3450 2450 50  0001 C CNN
	1    3450 2450
	1    0    0    -1  
$EndComp
Wire Wire Line
	3450 2450 3450 2350
Wire Wire Line
	3450 1500 3450 1100
Wire Wire Line
	3400 3850 3400 4050
Text Label 2550 1450 2    50   ~ 0
A13_I35
Wire Wire Line
	7650 3850 8250 3850
Text Label 8250 3850 2    50   ~ 0
A13_I35
Wire Wire Line
	7650 1550 8200 1550
Wire Wire Line
	7650 1650 8200 1650
Wire Wire Line
	7650 1850 8200 1850
Text Label 8200 1550 2    50   ~ 0
GPIO0
Text Label 8200 1650 2    50   ~ 0
TXD0
Text Label 8200 1850 2    50   ~ 0
RXD0
Wire Wire Line
	6450 1550 6300 1550
NoConn ~ 6450 2750
NoConn ~ 6450 2850
NoConn ~ 6450 2950
NoConn ~ 6450 3050
NoConn ~ 6450 3150
NoConn ~ 6450 3250
Wire Wire Line
	6450 1750 5900 1750
Wire Wire Line
	6450 1850 5900 1850
$Comp
L Device:R R12
U 1 1 5FCCDEE6
P 6300 1100
F 0 "R12" H 6370 1146 50  0000 L CNN
F 1 "10K" H 6370 1055 50  0000 L CNN
F 2 "Resistor_SMD:R_0603_1608Metric" V 6230 1100 50  0001 C CNN
F 3 "~" H 6300 1100 50  0001 C CNN
	1    6300 1100
	1    0    0    -1  
$EndComp
$Comp
L Device:C C11
U 1 1 5FCCEAF7
P 6300 2150
F 0 "C11" H 5950 2200 50  0000 L CNN
F 1 "0.1u" H 5950 2100 50  0000 L CNN
F 2 "Capacitor_SMD:C_0603_1608Metric" H 6338 2000 50  0001 C CNN
F 3 "~" H 6300 2150 50  0001 C CNN
	1    6300 2150
	1    0    0    -1  
$EndComp
$Comp
L Breathing_Gamepad-rescue:GND-power #PWR039
U 1 1 5FCCFF40
P 6300 2400
F 0 "#PWR039" H 6300 2150 50  0001 C CNN
F 1 "GND" H 6305 2227 50  0000 C CNN
F 2 "" H 6300 2400 50  0001 C CNN
F 3 "" H 6300 2400 50  0001 C CNN
	1    6300 2400
	1    0    0    -1  
$EndComp
Wire Wire Line
	6300 2400 6300 2300
Text Label 3450 1100 3    50   ~ 0
LED2
Text Label 5900 1550 0    50   ~ 0
EN
Wire Wire Line
	7650 2250 8200 2250
Text Label 8200 2250 2    50   ~ 0
Wire_SCL
$Comp
L Device:C C13
U 1 1 5FD1F92D
P 7550 950
F 0 "C13" H 7665 996 50  0000 L CNN
F 1 "0.1u" H 7665 905 50  0000 L CNN
F 2 "Capacitor_SMD:C_0603_1608Metric" H 7588 800 50  0001 C CNN
F 3 "~" H 7550 950 50  0001 C CNN
	1    7550 950 
	1    0    0    -1  
$EndComp
$Comp
L Breathing_Gamepad-rescue:GND-power #PWR045
U 1 1 5FD1F937
P 7550 1200
F 0 "#PWR045" H 7550 950 50  0001 C CNN
F 1 "GND" H 7555 1027 50  0000 C CNN
F 2 "" H 7550 1200 50  0001 C CNN
F 3 "" H 7550 1200 50  0001 C CNN
	1    7550 1200
	1    0    0    -1  
$EndComp
Wire Wire Line
	7550 800  7550 750 
Wire Wire Line
	7550 1200 7550 1100
Wire Wire Line
	7550 750  7050 750 
Wire Wire Line
	7050 750  7050 1350
$Comp
L Breathing_Gamepad-rescue:+3V3-power #PWR041
U 1 1 5FD3BF54
P 7050 700
F 0 "#PWR041" H 7050 550 50  0001 C CNN
F 1 "+3V3" H 7065 873 50  0000 C CNN
F 2 "" H 7050 700 50  0001 C CNN
F 3 "" H 7050 700 50  0001 C CNN
	1    7050 700 
	1    0    0    -1  
$EndComp
Wire Wire Line
	7050 700  7050 750 
Connection ~ 7050 750 
Wire Notes Line
	11200 4000 7850 4000
Wire Notes Line
	7850 4000 7850 6500
Text Notes 9150 4150 0    50   ~ 0
Gamepad Buttons
Wire Notes Line
	8350 4000 8350 500 
Text Label 10050 4450 0    50   ~ 0
Button_N
Text Label 10050 4900 0    50   ~ 0
Button_E
Text Label 10050 5350 0    50   ~ 0
Button_S
Text Label 10050 5800 0    50   ~ 0
Button_W
Text Label 9050 4450 0    50   ~ 0
Button_A
Text Label 9050 4900 0    50   ~ 0
Button_B
Text Label 9050 5350 0    50   ~ 0
Button_X
Text Label 9050 5800 0    50   ~ 0
Button_Y
Text Label 7900 4450 0    50   ~ 0
Button_L
Text Label 7900 4900 0    50   ~ 0
Button_R
Text Label 7900 5350 0    50   ~ 0
Button_SHARE
Text Label 7900 5800 0    50   ~ 0
Button_OPTIONS
Wire Notes Line
	5500 4800 5500 7750
Text Notes 4050 5000 0    50   ~ 0
USB to Serial Converter
Wire Notes Line
	5500 6100 7850 6100
Wire Notes Line
	500  4800 7850 4800
Text Notes 6400 4900 0    50   ~ 0
Nose Connector
Wire Notes Line
	500  2850 4100 2850
Wire Notes Line
	2850 2850 2850 500 
Text Notes 1450 600  0    50   ~ 0
LiPo Charger
Text Notes 1600 3000 0    50   ~ 0
Power Regulators
Wire Wire Line
	3450 1800 3450 2050
Wire Notes Line
	4100 650  4100 4950
Text Notes 3400 600  0    50   ~ 0
LED
Text Label 5650 2600 2    50   ~ 0
Joy_L
Text Label 5650 4500 2    50   ~ 0
Joy_R
Wire Notes Line
	5800 4800 5800 500 
Wire Notes Line
	5350 500  5300 500 
Text Notes 5150 600  2    50   ~ 0
Analog Joysticks
Wire Wire Line
	7650 3050 8200 3050
Wire Wire Line
	7650 3150 8200 3150
Text Label 8200 3150 2    50   ~ 0
Wire_SDA
Text Label 8200 3050 2    50   ~ 0
LED1
$Comp
L Device:R R13
U 1 1 6001EBFB
P 8800 1200
F 0 "R13" H 8550 1250 50  0000 L CNN
F 1 "4.7k" H 8550 1150 50  0000 L CNN
F 2 "Resistor_SMD:R_0603_1608Metric" V 8730 1200 50  0001 C CNN
F 3 "~" H 8800 1200 50  0001 C CNN
	1    8800 1200
	1    0    0    -1  
$EndComp
$Comp
L Device:R R14
U 1 1 6001FA73
P 9000 1200
F 0 "R14" H 9070 1246 50  0000 L CNN
F 1 "4.7k" H 9070 1155 50  0000 L CNN
F 2 "Resistor_SMD:R_0603_1608Metric" V 8930 1200 50  0001 C CNN
F 3 "~" H 9000 1200 50  0001 C CNN
	1    9000 1200
	1    0    0    -1  
$EndComp
Wire Wire Line
	8800 1350 8800 1750
Connection ~ 8800 1750
Wire Wire Line
	8800 1750 8400 1750
Wire Wire Line
	9000 900  9000 1050
Wire Wire Line
	8800 900  8800 1050
Wire Wire Line
	9000 1350 9000 1850
Connection ~ 9000 1850
Wire Wire Line
	9000 1850 8400 1850
Text Label 5650 1150 2    50   ~ 0
Joy_L_V
Text Label 5650 1850 2    50   ~ 0
Joy_L_H
Text Label 5900 1750 0    50   ~ 0
Joy_L_V
Text Label 5900 1850 0    50   ~ 0
Joy_L_H
Text Label 5650 2950 2    50   ~ 0
Joy_R_V
Text Label 5650 3700 2    50   ~ 0
Joy_R_H
Wire Wire Line
	7650 3650 8200 3650
Wire Wire Line
	7650 3750 8200 3750
Text Label 8200 3650 2    50   ~ 0
Joy_R_V
Text Label 8200 3750 2    50   ~ 0
Joy_R_H
Text Label 8600 2650 0    50   ~ 0
MCP_RESET
Text Label 8600 2450 0    50   ~ 0
INT_A
Wire Wire Line
	7650 2350 8200 2350
Wire Wire Line
	7650 2450 8200 2450
Wire Wire Line
	7650 3250 8200 3250
NoConn ~ 7650 2150
NoConn ~ 7650 2950
Text Label 6800 5700 2    50   ~ 0
Nose_32
Text Label 6800 5600 2    50   ~ 0
Nose_25
Text Label 6800 5400 2    50   ~ 0
Nose_17
Text Label 6800 5500 2    50   ~ 0
Nose_14
Text Label 8200 2350 2    50   ~ 0
Nose_14
Text Label 8200 2450 2    50   ~ 0
Button_PS
Text Label 8200 3250 2    50   ~ 0
Nose_25
NoConn ~ 1300 6700
$Comp
L Breathing_Gamepad-rescue:PWR_FLAG-power #FLG01
U 1 1 6028A6A3
P 1750 3300
F 0 "#FLG01" H 1750 3375 50  0001 C CNN
F 1 "PWR_FLAG" H 1750 3473 50  0000 C CNN
F 2 "" H 1750 3300 50  0001 C CNN
F 3 "~" H 1750 3300 50  0001 C CNN
	1    1750 3300
	1    0    0    -1  
$EndComp
Wire Wire Line
	1750 3300 1750 3500
Text Notes 5950 4150 0    50   ~ 0
Note:
Text Notes 5950 4250 0    50   ~ 0
Joy_L_V, Joy_L_H
Text Notes 5950 4350 0    50   ~ 0
Joy_R_V, Joy_R_H
Text Notes 5950 4450 0    50   ~ 0
A13_I35, Nose_32
Text Notes 5950 4650 0    50   ~ 0
Are all on ADC1\nADC2 does not work!
$Comp
L Breathing_Gamepad-rescue:ESP32-WROOM-32D-RF_Module U7
U 1 1 5F86F513
P 7050 2750
F 0 "U7" H 7300 4200 50  0000 C CNN
F 1 "ESP32-WROOM-32D" H 7450 1350 50  0000 C CNN
F 2 "RF_Module:ESP32-WROOM-32" H 7050 1250 50  0001 C CNN
F 3 "https://www.espressif.com/sites/default/files/documentation/esp32-wroom-32d_esp32-wroom-32u_datasheet_en.pdf" H 6750 2800 50  0001 C CNN
	1    7050 2750
	1    0    0    -1  
$EndComp
Wire Wire Line
	7650 3550 8200 3550
Text Label 8200 3550 2    50   ~ 0
Nose_32
Wire Wire Line
	7650 2550 8200 2550
Wire Wire Line
	7650 2650 8200 2650
Text Label 8200 2550 2    50   ~ 0
VP_EN
Text Label 8200 2650 2    50   ~ 0
Nose_17
$Comp
L Breathing_Gamepad-rescue:Conn_01x08-Connector_Generic J3
U 1 1 5FA922B0
P 6050 5400
F 0 "J3" H 5968 5917 50  0000 C CNN
F 1 "Conn_01x08" H 5968 5826 50  0000 C CNN
F 2 "Connector_PinSocket_2.54mm:PinSocket_1x08_P2.54mm_Vertical" H 6050 5400 50  0001 C CNN
F 3 "~" H 6050 5400 50  0001 C CNN
	1    6050 5400
	-1   0    0    -1  
$EndComp
Wire Wire Line
	6250 5100 6800 5100
Wire Wire Line
	6250 5300 6800 5300
Wire Wire Line
	6250 5200 7150 5200
Wire Wire Line
	7650 2850 8200 2850
Wire Wire Line
	7650 2750 8200 2750
Text Label 8200 2750 2    50   ~ 0
Nose_18
Text Label 8200 2850 2    50   ~ 0
Nose_19
Text Label 6800 5100 2    50   ~ 0
Nose_18
Text Label 6800 5300 2    50   ~ 0
Nose_19
NoConn ~ 9050 2350
NoConn ~ 7650 1950
NoConn ~ 7650 2050
Wire Wire Line
	7650 3350 8200 3350
Wire Wire Line
	7650 3450 8200 3450
Text Label 8200 3350 2    50   ~ 0
MCP_RESET
Text Label 8200 3450 2    50   ~ 0
INT_A
NoConn ~ 7650 1750
$Comp
L Breathing_Gamepad-rescue:SP0503BAHT-Power_Protection D3
U 1 1 6095505B
P 1900 7000
F 0 "D3" H 2105 7046 50  0000 L CNN
F 1 "SP0503BAHT" H 2105 6955 50  0000 L CNN
F 2 "Package_TO_SOT_SMD:SOT-143" H 2125 6950 50  0001 L CNN
F 3 "http://www.littelfuse.com/~/media/files/littelfuse/technical%20resources/documents/data%20sheets/sp05xxba.pdf" H 2025 7125 50  0001 C CNN
	1    1900 7000
	1    0    0    -1  
$EndComp
$Comp
L Breathing_Gamepad-rescue:UMH3N-Transistor_BJT Q2
U 1 1 60956362
P 4850 5850
F 0 "Q2" H 5140 5896 50  0000 L CNN
F 1 "UMH3N" H 5140 5805 50  0000 L CNN
F 2 "Package_TO_SOT_SMD:SOT-363_SC-70-6" H 4855 5410 50  0001 C CNN
F 3 "http://rohmfs.rohm.com/en/products/databook/datasheet/discrete/transistor/digital/emh3t2r-e.pdf" H 5000 5850 50  0001 C CNN
	1    4850 5850
	1    0    0    -1  
$EndComp
$Comp
L Breathing_Gamepad-rescue:UMH3N-Transistor_BJT Q2
U 2 1 6095A1BA
P 4850 6450
F 0 "Q2" H 5140 6496 50  0000 L CNN
F 1 "UMH3N" H 5140 6405 50  0000 L CNN
F 2 "Package_TO_SOT_SMD:SOT-363_SC-70-6" H 4855 6010 50  0001 C CNN
F 3 "http://rohmfs.rohm.com/en/products/databook/datasheet/discrete/transistor/digital/emh3t2r-e.pdf" H 5000 6450 50  0001 C CNN
	2    4850 6450
	1    0    0    -1  
$EndComp
Wire Wire Line
	4050 5850 4550 5850
Wire Wire Line
	4550 5850 4550 6750
Wire Wire Line
	4550 6750 5050 6750
Wire Wire Line
	5050 6750 5050 6650
Wire Wire Line
	4650 5850 4550 5850
Connection ~ 4550 5850
Wire Wire Line
	4650 6450 4050 6450
Wire Wire Line
	4650 6450 4650 6150
Wire Wire Line
	4650 6150 5050 6150
Wire Wire Line
	5050 6150 5050 6050
Connection ~ 4650 6450
Wire Wire Line
	5050 5650 5050 5550
Wire Wire Line
	5050 5550 5400 5550
Wire Wire Line
	5050 6250 5050 6200
Wire Wire Line
	5050 6200 5400 6200
$Comp
L Device:C C9
U 1 1 60A61DCB
P 4400 5400
F 0 "C9" H 4515 5446 50  0000 L CNN
F 1 "4.7u" H 4515 5355 50  0000 L CNN
F 2 "Capacitor_SMD:C_0603_1608Metric" H 4438 5250 50  0001 C CNN
F 3 "~" H 4400 5400 50  0001 C CNN
	1    4400 5400
	1    0    0    -1  
$EndComp
$Comp
L Device:C C10
U 1 1 60A62D34
P 4800 5400
F 0 "C10" H 4915 5446 50  0000 L CNN
F 1 "0.1u" H 4915 5355 50  0000 L CNN
F 2 "Capacitor_SMD:C_0603_1608Metric" H 4838 5250 50  0001 C CNN
F 3 "~" H 4800 5400 50  0001 C CNN
	1    4800 5400
	1    0    0    -1  
$EndComp
$Comp
L Breathing_Gamepad-rescue:GND-power #PWR031
U 1 1 60A63847
P 4400 5600
F 0 "#PWR031" H 4400 5350 50  0001 C CNN
F 1 "GND" H 4405 5427 50  0000 C CNN
F 2 "" H 4400 5600 50  0001 C CNN
F 3 "" H 4400 5600 50  0001 C CNN
	1    4400 5600
	1    0    0    -1  
$EndComp
Wire Wire Line
	3350 5150 3550 5150
Wire Wire Line
	4800 5150 4800 5250
Connection ~ 3350 5150
Wire Wire Line
	4400 5250 4400 5150
Connection ~ 4400 5150
Wire Wire Line
	4400 5150 4800 5150
Wire Wire Line
	4400 5550 4400 5600
Wire Wire Line
	4800 5600 4800 5550
$Comp
L Breathing_Gamepad-rescue:GND-power #PWR011
U 1 1 60AC365F
P 1900 7350
F 0 "#PWR011" H 1900 7100 50  0001 C CNN
F 1 "GND" H 1905 7177 50  0000 C CNN
F 2 "" H 1900 7350 50  0001 C CNN
F 3 "" H 1900 7350 50  0001 C CNN
	1    1900 7350
	1    0    0    -1  
$EndComp
$Comp
L Device:R R2
U 1 1 60AC450B
P 1650 5350
F 0 "R2" H 1720 5396 50  0000 L CNN
F 1 "22.1K" H 1720 5305 50  0000 L CNN
F 2 "Resistor_SMD:R_0603_1608Metric" V 1580 5350 50  0001 C CNN
F 3 "~" H 1650 5350 50  0001 C CNN
	1    1650 5350
	1    0    0    -1  
$EndComp
$Comp
L Device:R R3
U 1 1 60AC56C4
P 1650 5750
F 0 "R3" H 1720 5796 50  0000 L CNN
F 1 "47.5K" H 1720 5705 50  0000 L CNN
F 2 "Resistor_SMD:R_0603_1608Metric" V 1580 5750 50  0001 C CNN
F 3 "~" H 1650 5750 50  0001 C CNN
	1    1650 5750
	1    0    0    -1  
$EndComp
Wire Wire Line
	1650 5900 1650 6100
Wire Wire Line
	1650 5600 1650 5550
Wire Wire Line
	1650 5200 1650 5150
Wire Wire Line
	1300 6300 1500 6300
Wire Wire Line
	1500 6300 1500 5150
Wire Wire Line
	1500 5150 1650 5150
Connection ~ 1650 5150
Wire Wire Line
	1650 5150 1650 5100
Wire Wire Line
	1650 5550 2100 5550
Wire Wire Line
	2100 5550 2100 5850
Wire Wire Line
	2100 5850 2650 5850
Connection ~ 1650 5550
Wire Wire Line
	1650 5550 1650 5500
Wire Wire Line
	1650 5150 2200 5150
Connection ~ 2500 5150
Wire Wire Line
	1300 6500 2000 6500
Wire Wire Line
	1300 6600 1900 6600
Wire Wire Line
	1500 6300 1500 6800
Wire Wire Line
	1500 6800 1800 6800
Connection ~ 1500 6300
Wire Wire Line
	1900 6800 1900 6600
Connection ~ 1900 6600
Wire Wire Line
	1900 6600 2450 6600
Wire Wire Line
	2000 6800 2000 6500
Connection ~ 2000 6500
Wire Wire Line
	2000 6500 2350 6500
Wire Wire Line
	1900 7350 1900 7200
Wire Wire Line
	2200 5150 2200 5250
$Comp
L Device:C C3
U 1 1 60C39BF3
P 2200 5400
F 0 "C3" H 2050 5600 50  0000 L CNN
F 1 "4.7u" H 2000 5500 50  0000 L CNN
F 2 "Capacitor_SMD:C_0603_1608Metric" H 2238 5250 50  0001 C CNN
F 3 "~" H 2200 5400 50  0001 C CNN
	1    2200 5400
	1    0    0    -1  
$EndComp
$Comp
L Breathing_Gamepad-rescue:GND-power #PWR014
U 1 1 60C39BF9
P 2200 5600
F 0 "#PWR014" H 2200 5350 50  0001 C CNN
F 1 "GND" H 2205 5427 50  0000 C CNN
F 2 "" H 2200 5600 50  0001 C CNN
F 3 "" H 2200 5600 50  0001 C CNN
	1    2200 5600
	1    0    0    -1  
$EndComp
Wire Wire Line
	2200 5550 2200 5600
Wire Wire Line
	2200 5150 2500 5150
Connection ~ 2200 5150
$Comp
L Breathing_Gamepad-rescue:GND-power #PWR034
U 1 1 60C828FD
P 4800 5600
F 0 "#PWR034" H 4800 5350 50  0001 C CNN
F 1 "GND" H 4805 5427 50  0000 C CNN
F 2 "" H 4800 5600 50  0001 C CNN
F 3 "" H 4800 5600 50  0001 C CNN
	1    4800 5600
	1    0    0    -1  
$EndComp
$Comp
L Device:R R11
U 1 1 60C8468D
P 4150 5400
F 0 "R11" H 3950 5600 50  0000 L CNN
F 1 "1K" H 3950 5500 50  0000 L CNN
F 2 "Resistor_SMD:R_0603_1608Metric" V 4080 5400 50  0001 C CNN
F 3 "~" H 4150 5400 50  0001 C CNN
	1    4150 5400
	1    0    0    -1  
$EndComp
Wire Wire Line
	4150 5250 4150 5150
Connection ~ 4150 5150
Wire Wire Line
	4150 5150 4400 5150
Wire Wire Line
	4150 5550 4150 6750
Wire Wire Line
	4150 6750 4050 6750
Wire Wire Line
	1900 1750 2050 1750
Wire Wire Line
	2500 950  2200 950 
$Comp
L Breathing_Gamepad-rescue:GND-power #PWR015
U 1 1 60D3CF90
P 2450 1150
F 0 "#PWR015" H 2450 900 50  0001 C CNN
F 1 "GND" H 2455 977 50  0000 C CNN
F 2 "" H 2450 1150 50  0001 C CNN
F 3 "" H 2450 1150 50  0001 C CNN
	1    2450 1150
	1    0    0    -1  
$EndComp
Wire Wire Line
	2500 1050 2450 1050
Wire Wire Line
	2450 1050 2450 1150
Wire Wire Line
	2200 950  2050 950 
Wire Wire Line
	2050 950  2050 1750
Connection ~ 2200 950 
Wire Wire Line
	2200 1400 2200 1450
Wire Wire Line
	2200 1100 2200 950 
Wire Wire Line
	2200 1850 2200 1950
Wire Wire Line
	2200 1450 2550 1450
Connection ~ 2200 1450
Wire Wire Line
	2200 1450 2200 1550
Wire Wire Line
	1350 3200 1350 3550
$Comp
L Breathing_Gamepad-rescue:AP2112K-3.3-Regulator_Linear U3
U 1 1 60F2EA1C
P 2800 3400
F 0 "U3" H 2800 3742 50  0000 C CNN
F 1 "TLV70233" H 2800 3651 50  0000 C CNN
F 2 "Package_TO_SOT_SMD:SOT-23-5" H 2800 3725 50  0001 C CNN
F 3 "https://www.diodes.com/assets/Datasheets/AP2112.pdf" H 2800 3500 50  0001 C CNN
	1    2800 3400
	1    0    0    -1  
$EndComp
Wire Wire Line
	3200 3700 3200 3800
Wire Wire Line
	3600 3700 3600 3800
Connection ~ 3600 3300
Wire Wire Line
	3200 3300 3600 3300
Connection ~ 3200 3300
Wire Wire Line
	3200 3400 3200 3300
Wire Wire Line
	3600 3300 3600 3400
Wire Wire Line
	3100 3300 3200 3300
$Comp
L Breathing_Gamepad-rescue:GND-power #PWR027
U 1 1 60F303C3
P 3600 3800
F 0 "#PWR027" H 3600 3550 50  0001 C CNN
F 1 "GND" H 3605 3627 50  0000 C CNN
F 2 "" H 3600 3800 50  0001 C CNN
F 3 "" H 3600 3800 50  0001 C CNN
	1    3600 3800
	1    0    0    -1  
$EndComp
$Comp
L Breathing_Gamepad-rescue:GND-power #PWR021
U 1 1 60F303CD
P 3200 3800
F 0 "#PWR021" H 3200 3550 50  0001 C CNN
F 1 "GND" H 3205 3627 50  0000 C CNN
F 2 "" H 3200 3800 50  0001 C CNN
F 3 "" H 3200 3800 50  0001 C CNN
	1    3200 3800
	1    0    0    -1  
$EndComp
$Comp
L Device:C C8
U 1 1 60F303D7
P 3600 3550
F 0 "C8" H 3715 3596 50  0000 L CNN
F 1 "0.1u" H 3715 3505 50  0000 L CNN
F 2 "Capacitor_SMD:C_0603_1608Metric" H 3638 3400 50  0001 C CNN
F 3 "~" H 3600 3550 50  0001 C CNN
	1    3600 3550
	1    0    0    -1  
$EndComp
$Comp
L Device:C C6
U 1 1 60F303E1
P 3200 3550
F 0 "C6" H 3315 3596 50  0000 L CNN
F 1 "1u" H 3315 3505 50  0000 L CNN
F 2 "Capacitor_SMD:C_0603_1608Metric" H 3238 3400 50  0001 C CNN
F 3 "~" H 3200 3550 50  0001 C CNN
	1    3200 3550
	1    0    0    -1  
$EndComp
Wire Wire Line
	3600 3100 3600 3300
Wire Wire Line
	1600 4050 2000 4050
Wire Wire Line
	2500 3300 2000 3300
Wire Wire Line
	2000 3300 2000 3500
Connection ~ 2000 4050
Wire Wire Line
	2000 4050 2150 4050
Wire Wire Line
	1750 3500 2000 3500
Connection ~ 2000 3500
Wire Wire Line
	2000 3500 2000 4050
$Comp
L Breathing_Gamepad-rescue:GND-power #PWR018
U 1 1 60FAD7BB
P 2800 3800
F 0 "#PWR018" H 2800 3550 50  0001 C CNN
F 1 "GND" H 2805 3627 50  0000 C CNN
F 2 "" H 2800 3800 50  0001 C CNN
F 3 "" H 2800 3800 50  0001 C CNN
	1    2800 3800
	1    0    0    -1  
$EndComp
Wire Wire Line
	2800 3800 2800 3700
Wire Wire Line
	2500 3400 2150 3400
$Comp
L Breathing_Gamepad-rescue:+3.3VP-power #PWR026
U 1 1 60FE0BF7
P 3600 3100
F 0 "#PWR026" H 3750 3050 50  0001 C CNN
F 1 "+3.3VP" H 3615 3273 50  0000 C CNN
F 2 "" H 3600 3100 50  0001 C CNN
F 3 "" H 3600 3100 50  0001 C CNN
	1    3600 3100
	1    0    0    -1  
$EndComp
$Comp
L Device:R R10
U 1 1 6102F88D
P 3800 1650
F 0 "R10" H 3650 1750 50  0000 C CNN
F 1 "1K" H 3650 1650 50  0000 C CNN
F 2 "Resistor_SMD:R_0603_1608Metric" V 3730 1650 50  0001 C CNN
F 3 "~" H 3800 1650 50  0001 C CNN
	1    3800 1650
	1    0    0    -1  
$EndComp
$Comp
L Device:LED D6
U 1 1 6102F893
P 3800 2200
F 0 "D6" V 3839 2082 50  0000 R CNN
F 1 "LED" V 3748 2082 50  0000 R CNN
F 2 "LED_SMD:LED_0603_1608Metric" H 3800 2200 50  0001 C CNN
F 3 "~" H 3800 2200 50  0001 C CNN
	1    3800 2200
	0    -1   -1   0   
$EndComp
$Comp
L Breathing_Gamepad-rescue:GND-power #PWR028
U 1 1 6102F899
P 3800 2450
F 0 "#PWR028" H 3800 2200 50  0001 C CNN
F 1 "GND" H 3805 2277 50  0000 C CNN
F 2 "" H 3800 2450 50  0001 C CNN
F 3 "" H 3800 2450 50  0001 C CNN
	1    3800 2450
	1    0    0    -1  
$EndComp
Wire Wire Line
	3800 2450 3800 2350
Wire Wire Line
	3800 1500 3800 1100
Text Label 3800 1100 3    50   ~ 0
LED3
Wire Wire Line
	3800 1800 3800 2050
$Comp
L Device:R R8
U 1 1 6104BA77
P 3100 1650
F 0 "R8" H 2950 1750 50  0000 C CNN
F 1 "1K" H 2950 1650 50  0000 C CNN
F 2 "Resistor_SMD:R_0603_1608Metric" V 3030 1650 50  0001 C CNN
F 3 "~" H 3100 1650 50  0001 C CNN
	1    3100 1650
	1    0    0    -1  
$EndComp
$Comp
L Device:LED D4
U 1 1 6104BA7D
P 3100 2200
F 0 "D4" V 3139 2082 50  0000 R CNN
F 1 "LED" V 3048 2082 50  0000 R CNN
F 2 "LED_SMD:LED_0603_1608Metric" H 3100 2200 50  0001 C CNN
F 3 "~" H 3100 2200 50  0001 C CNN
	1    3100 2200
	0    -1   -1   0   
$EndComp
$Comp
L Breathing_Gamepad-rescue:GND-power #PWR020
U 1 1 6104BA83
P 3100 2450
F 0 "#PWR020" H 3100 2200 50  0001 C CNN
F 1 "GND" H 3105 2277 50  0000 C CNN
F 2 "" H 3100 2450 50  0001 C CNN
F 3 "" H 3100 2450 50  0001 C CNN
	1    3100 2450
	1    0    0    -1  
$EndComp
Wire Wire Line
	3100 2450 3100 2350
Wire Wire Line
	3100 1500 3100 1100
Text Label 3100 1100 3    50   ~ 0
LED1
Wire Wire Line
	3100 1800 3100 2050
Wire Wire Line
	8800 900  8900 900 
$Comp
L Breathing_Gamepad-rescue:+3.3VP-power #PWR050
U 1 1 610EB522
P 9750 950
F 0 "#PWR050" H 9900 900 50  0001 C CNN
F 1 "+3.3VP" H 9765 1123 50  0000 C CNN
F 2 "" H 9750 950 50  0001 C CNN
F 3 "" H 9750 950 50  0001 C CNN
	1    9750 950 
	1    0    0    -1  
$EndComp
$Comp
L Breathing_Gamepad-rescue:+3.3VP-power #PWR043
U 1 1 610ECCE4
P 7150 5150
F 0 "#PWR043" H 7300 5100 50  0001 C CNN
F 1 "+3.3VP" H 7165 5323 50  0000 C CNN
F 2 "" H 7150 5150 50  0001 C CNN
F 3 "" H 7150 5150 50  0001 C CNN
	1    7150 5150
	1    0    0    -1  
$EndComp
Wire Wire Line
	6250 5800 7150 5800
Connection ~ 7150 5800
Wire Wire Line
	7150 5650 7150 5800
$Comp
L Breathing_Gamepad-rescue:+3.3VP-power #PWR047
U 1 1 611C14DF
P 8900 800
F 0 "#PWR047" H 9050 750 50  0001 C CNN
F 1 "+3.3VP" H 8915 973 50  0000 C CNN
F 2 "" H 8900 800 50  0001 C CNN
F 3 "" H 8900 800 50  0001 C CNN
	1    8900 800 
	1    0    0    -1  
$EndComp
Wire Wire Line
	8900 800  8900 900 
Connection ~ 8900 900 
Wire Wire Line
	8900 900  9000 900 
Text Label 2150 3400 0    50   ~ 0
VP_EN
Text Label 11100 3050 2    50   ~ 0
Button_SHARE
Text Label 11100 3150 2    50   ~ 0
Button_OPTIONS
Text Label 11100 3250 2    50   ~ 0
LED2
Text Label 11100 3350 2    50   ~ 0
LED3
$Comp
L Breathing_Gamepad-rescue:PWR_FLAG-power #FLG02
U 1 1 6126FF7F
P 3550 5050
F 0 "#FLG02" H 3550 5125 50  0001 C CNN
F 1 "PWR_FLAG" H 3550 5223 50  0000 C CNN
F 2 "" H 3550 5050 50  0001 C CNN
F 3 "~" H 3550 5050 50  0001 C CNN
	1    3550 5050
	1    0    0    -1  
$EndComp
Wire Wire Line
	3550 5050 3550 5150
Connection ~ 3550 5150
Wire Wire Line
	3550 5150 4150 5150
Text Notes 9200 6300 0    50   ~ 0
A = Cross\nB = Circle\nX = Square\nY = Triangle
Text Notes 10650 6150 2    50   ~ 0
D-Pad Buttons
Wire Wire Line
	6300 750  7050 750 
Wire Wire Line
	6300 750  6300 950 
Wire Wire Line
	6300 1250 6300 1550
Connection ~ 6300 1550
Wire Wire Line
	6300 1550 5900 1550
Wire Wire Line
	6300 1550 6300 2000
$Comp
L Breathing_Gamepad-rescue:SW_Push_45deg-Switch SW1
U 1 1 613C961D
P 6400 6950
F 0 "SW1" H 6400 7231 50  0000 C CNN
F 1 "SW_Push_45deg" H 6400 7140 50  0000 C CNN
F 2 "Button_Switch_SMD:SW_SPST_Omron_B3FS-101xP" H 6400 6950 50  0001 C CNN
F 3 "~" H 6400 6950 50  0001 C CNN
	1    6400 6950
	1    0    0    -1  
$EndComp
$Comp
L Breathing_Gamepad-rescue:GND-power #PWR040
U 1 1 613C9623
P 6600 7250
F 0 "#PWR040" H 6600 7000 50  0001 C CNN
F 1 "GND" H 6605 7077 50  0000 C CNN
F 2 "" H 6600 7250 50  0001 C CNN
F 3 "" H 6600 7250 50  0001 C CNN
	1    6600 7250
	1    0    0    -1  
$EndComp
Wire Wire Line
	6500 7050 6600 7050
Wire Wire Line
	6600 7050 6600 7250
Wire Wire Line
	6300 6850 5750 6850
Text Label 5750 6850 0    50   ~ 0
Button_PS
Text Notes 6450 6350 2    50   ~ 0
PS Button
Wire Wire Line
	7950 1100 7950 1200
$Comp
L Breathing_Gamepad-rescue:GND-power #PWR046
U 1 1 61407A4F
P 7950 1200
F 0 "#PWR046" H 7950 950 50  0001 C CNN
F 1 "GND" H 7955 1027 50  0000 C CNN
F 2 "" H 7950 1200 50  0001 C CNN
F 3 "" H 7950 1200 50  0001 C CNN
	1    7950 1200
	1    0    0    -1  
$EndComp
$Comp
L Device:C C14
U 1 1 61407A59
P 7950 950
F 0 "C14" H 8065 996 50  0000 L CNN
F 1 "1u" H 8065 905 50  0000 L CNN
F 2 "Capacitor_SMD:C_0603_1608Metric" H 7988 800 50  0001 C CNN
F 3 "~" H 7950 950 50  0001 C CNN
	1    7950 950 
	1    0    0    -1  
$EndComp
Wire Wire Line
	7550 750  7950 750 
Wire Wire Line
	7950 750  7950 800 
Connection ~ 7550 750 
$Comp
L Breathing_Gamepad-rescue:RKJXV1224005-Alps_Joystick U5
U 1 1 6147C5F7
P 4850 1850
F 0 "U5" H 4522 1903 60  0000 R CNN
F 1 "RKJXV1224005" H 4900 2900 60  0000 R CNN
F 2 "kicad-lib-input:RKJXV1224005" H 4850 1600 60  0001 C CNN
F 3 "" H 4850 1600 60  0001 C CNN
	1    4850 1850
	1    0    0    -1  
$EndComp
$Comp
L Breathing_Gamepad-rescue:RKJXV1224005-Alps_Joystick U6
U 1 1 6147D4F8
P 4850 3700
F 0 "U6" H 4522 3753 60  0000 R CNN
F 1 "RKJXV1224005" H 5550 2750 60  0000 R CNN
F 2 "kicad-lib-input:RKJXV1224005" H 4850 3450 60  0001 C CNN
F 3 "" H 4850 3450 60  0001 C CNN
	1    4850 3700
	1    0    0    -1  
$EndComp
$Comp
L Breathing_Gamepad-rescue:GND-power #PWR032
U 1 1 6147E6C0
P 4700 2700
F 0 "#PWR032" H 4700 2450 50  0001 C CNN
F 1 "GND" H 4705 2527 50  0000 C CNN
F 2 "" H 4700 2700 50  0001 C CNN
F 3 "" H 4700 2700 50  0001 C CNN
	1    4700 2700
	1    0    0    -1  
$EndComp
$Comp
L Breathing_Gamepad-rescue:GND-power #PWR033
U 1 1 6147F9E3
P 4700 4550
F 0 "#PWR033" H 4700 4300 50  0001 C CNN
F 1 "GND" H 4705 4377 50  0000 C CNN
F 2 "" H 4700 4550 50  0001 C CNN
F 3 "" H 4700 4550 50  0001 C CNN
	1    4700 4550
	1    0    0    -1  
$EndComp
$Comp
L Breathing_Gamepad-rescue:GND-power #PWR038
U 1 1 614809F5
P 5450 4100
F 0 "#PWR038" H 5450 3850 50  0001 C CNN
F 1 "GND" H 5455 3927 50  0000 C CNN
F 2 "" H 5450 4100 50  0001 C CNN
F 3 "" H 5450 4100 50  0001 C CNN
	1    5450 4100
	1    0    0    -1  
$EndComp
$Comp
L Breathing_Gamepad-rescue:GND-power #PWR037
U 1 1 61481A65
P 5400 2300
F 0 "#PWR037" H 5400 2050 50  0001 C CNN
F 1 "GND" H 5405 2127 50  0000 C CNN
F 2 "" H 5400 2300 50  0001 C CNN
F 3 "" H 5400 2300 50  0001 C CNN
	1    5400 2300
	1    0    0    -1  
$EndComp
$Comp
L Breathing_Gamepad-rescue:GND-power #PWR030
U 1 1 614828ED
P 4300 1100
F 0 "#PWR030" H 4300 850 50  0001 C CNN
F 1 "GND" H 4305 927 50  0000 C CNN
F 2 "" H 4300 1100 50  0001 C CNN
F 3 "" H 4300 1100 50  0001 C CNN
	1    4300 1100
	1    0    0    -1  
$EndComp
$Comp
L Breathing_Gamepad-rescue:GND-power #PWR029
U 1 1 614836F1
P 4250 3150
F 0 "#PWR029" H 4250 2900 50  0001 C CNN
F 1 "GND" H 4255 2977 50  0000 C CNN
F 2 "" H 4250 3150 50  0001 C CNN
F 3 "" H 4250 3150 50  0001 C CNN
	1    4250 3150
	1    0    0    -1  
$EndComp
$Comp
L Breathing_Gamepad-rescue:+3.3VP-power #PWR035
U 1 1 614850E9
P 5350 1000
F 0 "#PWR035" H 5500 950 50  0001 C CNN
F 1 "+3.3VP" H 5365 1173 50  0000 C CNN
F 2 "" H 5350 1000 50  0001 C CNN
F 3 "" H 5350 1000 50  0001 C CNN
	1    5350 1000
	1    0    0    -1  
$EndComp
$Comp
L Breathing_Gamepad-rescue:+3.3VP-power #PWR036
U 1 1 61486EB5
P 5350 2850
F 0 "#PWR036" H 5500 2800 50  0001 C CNN
F 1 "+3.3VP" H 5365 3023 50  0000 C CNN
F 2 "" H 5350 2850 50  0001 C CNN
F 3 "" H 5350 2850 50  0001 C CNN
	1    5350 2850
	1    0    0    -1  
$EndComp
Wire Wire Line
	4300 1100 4300 950 
Wire Wire Line
	4300 950  4650 950 
Wire Wire Line
	4650 950  4650 1200
Wire Wire Line
	5350 2050 5400 2050
Wire Wire Line
	5400 2050 5400 2300
Wire Wire Line
	5350 1000 5050 1000
Wire Wire Line
	5050 1000 5050 1200
Wire Wire Line
	4850 1200 4850 1150
Wire Wire Line
	4850 1150 5650 1150
Wire Wire Line
	5350 1850 5650 1850
Wire Wire Line
	5350 1650 5350 1200
Connection ~ 5350 1000
Wire Wire Line
	4850 3050 4850 2950
Wire Wire Line
	4850 2950 5650 2950
Wire Wire Line
	4700 2700 4700 2600
Wire Wire Line
	4700 2600 4800 2600
Wire Wire Line
	4800 2600 4800 2500
Wire Wire Line
	4700 2600 4700 2500
Connection ~ 4700 2600
Wire Wire Line
	5000 2500 5000 2600
Wire Wire Line
	5000 2600 5650 2600
Wire Wire Line
	4900 2500 4900 2600
Wire Wire Line
	4900 2600 5000 2600
Connection ~ 5000 2600
Wire Wire Line
	4650 3050 4250 3050
Wire Wire Line
	4250 3050 4250 3150
Wire Wire Line
	5050 2850 5050 3050
Wire Wire Line
	5350 2850 5050 2850
Wire Wire Line
	5350 3900 5450 3900
Wire Wire Line
	5450 3900 5450 4100
Wire Wire Line
	5350 3500 5350 3050
Connection ~ 5350 2850
Wire Wire Line
	5350 3700 5650 3700
Wire Wire Line
	4700 4550 4700 4450
Wire Wire Line
	4700 4450 4800 4450
Wire Wire Line
	4800 4450 4800 4350
Connection ~ 4700 4450
Wire Wire Line
	4700 4450 4700 4350
Wire Wire Line
	4900 4350 4900 4500
Wire Wire Line
	4900 4500 5000 4500
Wire Wire Line
	5000 4350 5000 4500
Connection ~ 5000 4500
Wire Wire Line
	5000 4500 5650 4500
Text Notes 9400 600  0    50   ~ 0
I2C Button Controller
Text Notes 6650 600  2    50   ~ 0
ESP32 Processor
$Comp
L Device:C C16
U 1 1 6178C661
P 5500 1350
F 0 "C16" H 5615 1396 50  0000 L CNN
F 1 "0.1u" H 5615 1305 50  0000 L CNN
F 2 "Capacitor_SMD:C_0603_1608Metric" H 5538 1200 50  0001 C CNN
F 3 "~" H 5500 1350 50  0001 C CNN
	1    5500 1350
	1    0    0    -1  
$EndComp
$Comp
L Breathing_Gamepad-rescue:GND-power #PWR0101
U 1 1 6178C667
P 5500 1550
F 0 "#PWR0101" H 5500 1300 50  0001 C CNN
F 1 "GND" H 5505 1377 50  0000 C CNN
F 2 "" H 5500 1550 50  0001 C CNN
F 3 "" H 5500 1550 50  0001 C CNN
	1    5500 1550
	1    0    0    -1  
$EndComp
Wire Wire Line
	5500 1550 5500 1500
$Comp
L Device:C C17
U 1 1 617A99E5
P 5500 3200
F 0 "C17" H 5615 3246 50  0000 L CNN
F 1 "0.1u" H 5615 3155 50  0000 L CNN
F 2 "Capacitor_SMD:C_0603_1608Metric" H 5538 3050 50  0001 C CNN
F 3 "~" H 5500 3200 50  0001 C CNN
	1    5500 3200
	1    0    0    -1  
$EndComp
$Comp
L Breathing_Gamepad-rescue:GND-power #PWR0102
U 1 1 617A99EB
P 5500 3400
F 0 "#PWR0102" H 5500 3150 50  0001 C CNN
F 1 "GND" H 5505 3227 50  0000 C CNN
F 2 "" H 5500 3400 50  0001 C CNN
F 3 "" H 5500 3400 50  0001 C CNN
	1    5500 3400
	1    0    0    -1  
$EndComp
Wire Wire Line
	5500 3400 5500 3350
Wire Wire Line
	5500 1200 5350 1200
Connection ~ 5350 1200
Wire Wire Line
	5350 1200 5350 1000
Wire Wire Line
	5500 3050 5350 3050
Connection ~ 5350 3050
Wire Wire Line
	5350 3050 5350 2850
$EndSCHEMATC
