(module 27800 (layer F.Cu) (tedit 5A7918F0)
  (fp_text reference REF** (at 0 -15.24) (layer F.SilkS)
    (effects (font (size 1 1) (thickness 0.15)))
  )
  (fp_text value "#27800" (at 0 15.24) (layer F.Fab)
    (effects (font (size 1 1) (thickness 0.15)))
  )
  (fp_circle (center 0 0) (end -8.89 3.81) (layer F.SilkS) (width 0.15))
  (fp_circle (center 0 0) (end -11.43 5.08) (layer F.SilkS) (width 0.15))
  (fp_line (start 0 -17.78) (end 13.97 -17.78) (layer F.SilkS) (width 0.15))
  (fp_line (start 13.97 -17.78) (end 13.97 17.78) (layer F.SilkS) (width 0.15))
  (fp_line (start 13.97 17.78) (end -13.97 17.78) (layer F.SilkS) (width 0.15))
  (fp_line (start -13.97 17.78) (end -13.97 -17.78) (layer F.SilkS) (width 0.15))
  (fp_line (start -13.97 -17.78) (end 0 -17.78) (layer F.SilkS) (width 0.15))
  (pad 5 thru_hole circle (at 11.43 -12.7) (size 2 2) (drill 1) (layers *.Cu *.Mask))
  (pad 2 thru_hole circle (at -11.43 -10.16) (size 2 2) (drill 1) (layers *.Cu *.Mask))
  (pad 1 thru_hole circle (at -11.43 -12.7) (size 2 2) (drill 1) (layers *.Cu *.Mask))
  (pad 6 thru_hole circle (at 11.43 -10.16) (size 2 2) (drill 1) (layers *.Cu *.Mask))
  (pad 3 thru_hole circle (at -11.43 10.16) (size 2 2) (drill 1) (layers *.Cu *.Mask))
  (pad 4 thru_hole circle (at -11.43 12.7) (size 2 2) (drill 1) (layers *.Cu *.Mask))
  (pad 7 thru_hole circle (at 11.43 10.16) (size 2 2) (drill 1) (layers *.Cu *.Mask))
  (pad 8 thru_hole circle (at 11.43 12.7) (size 2 2) (drill 1) (layers *.Cu *.Mask))
  (pad "" np_thru_hole circle (at 7.62 -15.24) (size 3 3) (drill 3) (layers *.Cu *.Mask))
  (pad "" np_thru_hole circle (at -7.62 -15.24) (size 3 3) (drill 3) (layers *.Cu *.Mask))
  (pad "" np_thru_hole circle (at -7.62 15.24) (size 3 3) (drill 3) (layers *.Cu *.Mask))
  (pad "" np_thru_hole circle (at 7.62 15.24) (size 3 3) (drill 3) (layers *.Cu *.Mask))
)
